<?xml version="1.0" encoding="UTF-8" standalone="no"?>
<svg xmlns:svg="http://www.w3.org/2000/svg" xmlns="http://www.w3.org/2000/svg" xmlns:xlink="http://www.w3.org/1999/xlink" viewBox="0 0 1152.8778 409.22223" version="1.1">
  <g transform="translate(782.8139,242.49802)">
    <path style="stroke-width:0.52916664" d="m -731.81983,73.586911 c -0.79685,-0.21691 -1.74644,-0.2839 -2.11024,-0.14891 -0.3638,0.13499 -0.66146,0.0374 -0.66146,-0.21696 0,-0.25429 -1.01203,-0.40693 -2.24896,-0.33917 -1.23693,0.0678 -2.96333,-0.162 -3.83646,-0.51059 -0.87312,-0.34861 -1.88515,-0.52586 -2.24895,-0.39388 -0.36381,0.13197 -0.66146,0.0201 -0.66146,-0.24863 0,-0.26871 -1.01203,-0.78095 -2.24896,-1.13829 -4.96837,-1.43534 -5.96868,-1.80965 -6.32786,-2.36773 -0.20608,-0.32026 -0.80139,-0.58436 -1.32291,-0.5869 -0.5215,-0.003 -0.88845,-0.3029 -0.81545,-0.66747 0.073,-0.36454 -0.8233,-1.07701 -1.99183,-1.58326 -1.2627,-0.54703 -2.02097,-1.1905 -1.86915,-1.58613 0.14049,-0.36613 0.007,-0.66569 -0.29583,-0.66569 -0.30322,0 -1.40637,-0.9525 -2.45148,-2.11667 -1.04507,-1.16416 -2.2108,-2.11666 -2.59048,-2.11666 -0.39449,0 -0.56054,-0.33825 -0.38745,-0.78928 0.1729,-0.45064 -0.0612,-0.92901 -0.54579,-1.11496 -0.46675,-0.17909 -0.84865,-0.65735 -0.84865,-1.06277 0,-0.40542 -0.36308,-0.73716 -0.80684,-0.73716 -0.77957,0 -2.12778,-2.41067 -1.89651,-3.39108 0.0624,-0.26438 -0.17365,-0.65808 -0.52446,-0.87488 -0.35081,-0.2168 -0.72324,-1.19112 -0.82759,-2.16516 -0.10438,-0.97401 -0.52528,-2.84253 -0.93533,-4.15221 -1.02658,-3.27885 -1.54014,-7.40834 -0.92133,-7.40834 0.6024,0 0.53912,-1.71751 -0.08,-2.17196 -0.76636,-0.56248 -1.49169,-4.77245 -0.93734,-5.44042 0.66344,-0.79941 0.0908,-5.08516 -0.6809,-5.09571 -0.33171,-0.005 -0.26898,-0.21254 0.14279,-0.47329 0.40402,-0.25585 0.71808,-1.14517 0.69792,-1.97627 -0.0201,-0.83108 -0.11261,-5.03214 -0.2054,-9.33569 -0.12022,-5.5746403 -0.36078,-7.9432403 -0.83656,-8.2372203 -0.48752,-0.30126 -0.53168,-0.83167 -0.16353,-1.96498 0.651,-2.00424996 1.05944,-6.05028 0.61073,-6.05028 -0.63955,0 -0.81161,-5.12437 -0.20111,-5.9898 0.48313,-0.6848997 0.49446,-7.5547397 0.0146,-8.8268597 -0.66599,-1.76537 -0.79407,-5.24409 -0.20045,-5.44405 0.44098,-0.14855 0.42071,-0.43117 -0.0739,-1.03058 -0.79642,-0.96514 -0.57282,-5.29739 0.32951,-6.38465 0.41349,-0.4982 0.43889,-1.26097 0.0833,-2.5007 -0.35044,-1.22191 -0.33279,-1.89434 0.056,-2.13463 0.82346,-0.50892 0.82571,-0.76245 0.0156,-1.73865 -0.53081,-0.63956 -0.57145,-1.06161 -0.15105,-1.56815 0.69967,-0.84305 0.70221,-6.59749 0.003,-7.02957 -0.31006,-0.19162 -0.29927,-0.55106 0.0284,-0.94586 0.74509,-0.89778 1.19383,-5.77735 1.2913,-14.0415 0.0585,-4.96665 0.2735,-7.16287 0.71543,-7.31023 0.34745,-0.11586 0.54192,-0.49291 0.43215,-0.83791 -0.5407,-1.69933 -0.7079,-8.24246 -0.21482,-8.40682 0.29837,-0.0994 0.64889,-1.84256 0.77894,-3.87356 0.32736,-5.11246 0.32295,-5.08522 1.04849,-6.48369 0.68963,-1.32929 0.89397,-6.41766 1.04611,-26.048621 0.0507,-6.54843 0.37772,-13.69218 0.72665,-15.875 0.80991,-5.06667 1.12755,-7.59495 1.33977,-10.66409 0.0936,-1.35411 0.33451,-2.72778 0.53525,-3.0526 0.5624,-0.90999 0.83907,-7.97914 0.31229,-7.97914 -0.26318,0 -0.25189,-0.7748 0.0259,-1.78107 0.27048,-0.97959 0.47672,-2.58694 0.45834,-3.57188 -0.13354,-7.15533 0.60777,-17.51146 1.55942,-21.78493 0.5973,-2.68219 1.15679,-5.47202 1.24333,-6.19962 0.0865,-0.7276 0.29867,-1.56104 0.47133,-1.85208 0.1727,-0.29104 0.48565,-1.48167 0.69543,-2.64584 0.20979,-1.16416 0.56571,-2.35479 0.79095,-2.64583 0.22524,-0.29104 0.81338,-2.3151 1.30696,-4.49792 0.49361,-2.18281 1.10162,-4.35047 1.35112,-4.81702 0.24953,-0.46654 0.62008,-1.95775 0.82341,-3.31379 0.20336,-1.35605 0.58039,-2.59572 0.83783,-2.75484 0.25747,-0.15912 0.46824,-1.16822 0.46839,-2.24245 1.4e-4,-1.07423 0.47192,-3.19405 1.04836,-4.7107 0.57645,-1.51666 1.09416,-3.54072 1.15046,-4.49792 0.0563,-0.9572 0.4123,-2.11001 0.79108,-2.56181 0.37881,-0.4518 0.76084,-1.28523 0.84897,-1.85208 0.0881,-0.56685 0.33271,-1.30681 0.54351,-1.64434 0.21082,-0.33754 0.23796,-0.99238 0.0604,-1.45521 -0.17762,-0.46283 -0.097,-0.8415 0.17909,-0.8415 0.27612,0 0.78687,-0.9507 1.13499,-2.11266 0.78883,-2.63288 2.95111,-4.88235 4.48315,-4.66397 1.37694,0.19627 1.75384,1.98001 0.78317,3.70662 -0.75327,1.33993 -1.03527,2.58243 -1.08702,4.7898 -0.0196,0.83024 -0.3321,1.45521 -0.72795,1.45521 -0.39412,0 -0.82714,0.85719 -1.00242,1.98437 -0.74335,4.77971 -1.4509,8.41193 -1.82976,9.39271 -0.96475,2.49764 -1.58771,4.93508 -1.89343,7.40833 -0.35632,2.88269 -1.12562,5.75027 -1.98626,7.40384 -0.30167,0.5796 -0.62661,1.77023 -0.72207,2.64583 -0.0955,0.8756 -0.51126,2.42544 -0.92398,3.44408 -0.92437,2.2815 -2.55164,12.61723 -2.10124,13.34603 0.18039,0.29185 0.0641,0.69371 -0.25839,0.89302 -0.46855,0.28958 -1.13747,7.72582 -1.14676,12.74845 0,0.43657 -0.0116,1.50813 -0.0241,2.38125 -0.0124,0.87313 0.0201,1.94469 0.0725,2.38125 0.48877,4.08195 0.27522,12.64856 -0.34766,13.94786 -0.50332,1.04985 -0.5669,1.80799 -0.20791,2.47875 0.61068,1.14111 0.68736,3.15184 0.12028,3.15424 -0.21828,0.001 -0.40804,0.94075 -0.4217,2.08851 -0.0153,1.28444 -0.41409,2.51702 -1.03727,3.20563 -0.8646,0.95536 -0.89963,1.19019 -0.23979,1.60755 0.67223,0.42521 0.6695,0.49087 -0.0209,0.50496 -0.54134,0.0111 -0.59955,0.13985 -0.18306,0.40498 0.73424,0.46742 0.49207,6.49555 -0.32206,8.01674 -0.37451,0.69978 -0.37335,1.07504 0.004,1.20072 0.61566,0.20523 0.65064,0.91575 0.26874,5.45881 -0.33726,4.0123 -0.33829,3.81141 0.0329,6.49225 0.17807,1.28595 0.0736,2.54717 -0.24262,2.92816 -0.30549,0.36809 -0.36386,0.97921 -0.12973,1.35805 0.74668,1.20815 0.63463,7.645091 -0.15925,9.148561 -0.537,1.01694 -0.58248,1.56624 -0.16433,1.98438 0.41812,0.41814 0.40994,0.57818 -0.0296,0.57818 -0.3913,0 -0.59497,1.08375 -0.57182,3.04271 0.0577,4.8823 -0.54586,12.71011 -1.1543,14.96965 -0.30882,1.14685 -0.40343,3.27665 -0.21024,4.7329 0.21829,1.64552 0.13346,2.91011 -0.2241,3.34094 -0.5344,0.64394 -1.14173,11.25642 -1.35369,23.65547 -0.0472,2.7649 -0.3112,5.38427 -0.5865,5.82083 -0.68553,1.08707 -0.78896,2.05788 -0.25447,2.38821 0.2454,0.15166 0.30456,1.64089 0.13147,3.3094 -0.17309,1.66851 -0.2971,4.70052 -0.27559,6.73781 0.0651,6.16935 0.0847,9.89518 0.0694,13.22917 -0.008,1.74624 0.008,4.8418597 0.0347,6.8791597 0.0271,2.03729 -0.0212,5.68764 -0.10695,8.11188004 -0.0859,2.42424996 0.0285,4.52188996 0.25432,4.66142996 0.6182,0.38209 0.49316,2.30794 -0.14986,2.30794 -0.30821,0 -0.42701,0.21582 -0.26397,0.47961 0.57028,0.92276 1.1803,6.9733303 0.73104,7.2509803 -0.24921,0.15404 -0.27628,0.56124 -0.0602,0.90493 0.21611,0.34369 0.42201,3.95864 0.45752,8.03322 0.0794,9.10138 0.68328,16.87383 1.32947,17.10973 0.26573,0.097 0.48316,0.61876 0.48316,1.15941 0,0.54065 0.20884,1.11207 0.46408,1.26981 0.25524,0.15775 0.73491,1.36242 1.06595,2.67705 0.33102,1.31464 0.83656,2.39025 1.12342,2.39025 0.28684,0 0.52155,0.47625 0.52155,1.05833 0,0.58209 0.19024,1.05834 0.42278,1.05834 0.23254,0 1.00645,0.94609 1.71979,2.10243 0.71334,1.15636 1.47561,2.10886 1.69389,2.11667 0.21828,0.008 0.39687,0.37142 0.39687,0.80798 0,0.44098 0.47038,0.79375 1.05834,0.79375 0.58208,0 1.05833,0.23813 1.05833,0.52917 0,0.29104 0.35719,0.52916 0.79375,0.52916 0.43656,0 0.79375,0.26361 0.79375,0.58579 0,0.32218 0.36618,0.44527 0.81378,0.2735 0.46305,-0.17769 0.94358,0.0259 1.11495,0.47257 0.16563,0.43164 0.75192,0.78481 1.30289,0.78481 0.55094,0 1.00171,0.23813 1.00171,0.52917 0,0.29104 0.47625,0.52916 1.05834,0.52916 0.58208,0 1.05833,0.23813 1.05833,0.52917 0,0.29104 0.48371,0.52917 1.07492,0.52917 0.59124,0 1.21203,0.35718 1.37954,0.79375 0.18709,0.48752 0.99018,0.79375 2.08158,0.79375 0.97732,0 2.87944,0.3743 4.22688,0.83177 1.34747,0.45749 2.58403,0.69768 2.74794,0.53377 0.16391,-0.16391 0.60751,-0.0412 0.98578,0.27278 0.41614,0.34536 3.93557,0.60479 8.91112,0.65688 4.52284,0.0474 8.22383,0.27872 8.22444,0.51417 0,0.23545 0.19089,0.31081 0.42285,0.16745 0.23196,-0.14335 3.02496,-0.41163 6.20665,-0.59621 3.18172,-0.18457 6.02803,-0.52768 6.32516,-0.76245 0.8047,-0.63584 3.97981,-0.97919 3.97981,-0.43037 0,0.26141 0.35999,0.11533 0.79997,-0.32464 0.43997,-0.44 1.31065,-0.70162 1.93483,-0.58142 0.62418,0.1202 1.87154,-0.11118 2.77191,-0.51422 2.22497,-0.99592 7.36966,-2.65613 7.83638,-2.52884 0.20819,0.0568 1.04162,-0.15401 1.85208,-0.46847 0.81047,-0.31443 2.03071,-0.67738 2.71165,-0.80658 0.68094,-0.12917 2.22876,-0.59473 3.43958,-1.03455 4.58264,-1.66465 10.08505,-3.16145 13.04942,-3.54975 1.01865,-0.13343 2.80459,-0.49417 3.96875,-0.80158 3.36684,-0.88914 8.73125,-1.32234 8.73125,-0.70509 0,0.29694 -0.24968,0.69421 -0.55486,0.88283 -0.37738,0.23323 -0.3507,0.58891 0.0834,1.11199 0.93571,1.12745 0.0416,1.70466 -2.87112,1.85362 -1.82686,0.0934 -2.69398,0.40159 -3.06132,1.08797 -0.28188,0.52668 -1.07028,0.9576 -1.75201,0.9576 -0.68173,0 -1.53595,0.35719 -1.89826,0.79375 -0.36232,0.43657 -0.91746,0.79375 -1.23365,0.79375 -0.31619,0 -2.54875,0.84781 -4.96123,1.884 -2.41248,1.03616 -4.59998,1.75191 -4.86111,1.59051 -0.26113,-0.16137 -0.61132,0.0624 -0.77821,0.49729 -0.20205,0.52654 -1.06034,0.79697 -2.56899,0.80946 -1.24606,0.0103 -2.84888,0.34179 -3.56182,0.7366 -0.71294,0.39484 -1.61232,0.59659 -1.99863,0.44834 -0.38631,-0.14825 -1.64205,0.38166 -2.79053,1.17755 -1.14848,0.79592 -2.44413,1.31051 -2.87921,1.14353 -0.43509,-0.16695 -0.93181,-0.0758 -1.10382,0.20252 -0.17202,0.27831 -0.77496,0.50604 -1.33987,0.50604 -0.56491,0 -1.0271,0.21584 -1.0271,0.47963 0,0.26379 -0.44937,0.36211 -0.99861,0.2185 -0.54924,-0.14365 -1.15218,-0.0127 -1.33987,0.29101 -0.18768,0.30366 -0.69384,0.41685 -1.12479,0.25146 -0.43095,-0.16536 -1.11575,-0.0249 -1.52178,0.31203 -0.40603,0.33697 -1.66466,0.558 -2.797,0.49119 -1.13231,-0.0668 -2.40416,0.092 -2.82636,0.35293 -0.42217,0.26093 -2.19657,0.67556 -3.94314,0.92141 -4.07974,0.57433 -25.22431,0.77407 -27.12675,0.25628 z"/>
    <path style="stroke-width:0.52916664" d="m -534.11089,44.861891 c -0.23561,-0.85648 -0.71272,-1.06389 -2.35985,-1.02587 -1.1355,0.0262 -2.57523,0.21974 -3.19941,0.43003 -0.76925,0.25916 -1.43082,0.0864 -2.05349,-0.53626 -0.5628,-0.56282 -1.76269,-0.92847 -3.09776,-0.94401 -1.33951,-0.0156 -2.2049,-0.28024 -2.24599,-0.68685 -0.12804,-1.26691 -0.20408,-1.31612 -1.00568,-0.65083 -0.78572,0.65207 -1.50733,0.39532 -1.64086,-0.58388 -0.16086,-1.17964 -0.24384,-1.23436 -0.73571,-0.48509 -0.36357,0.55386 -0.64101,0.6154 -0.91794,0.20363 -0.21828,-0.32457 -0.93265,-0.75735 -1.5875,-0.96171 -0.69583,-0.21714 -1.19062,-0.79655 -1.19062,-1.39422 0,-0.56248 -0.34704,-1.0227 -0.77119,-1.0227 -0.42416,0 -1.43619,-0.85031 -2.24896,-1.8896 -0.81277,-1.03928 -1.89449,-2.3854 -2.40381,-2.99138 -0.50932,-0.60597 -0.92604,-1.42253 -0.92604,-1.81456 0,-0.40693 -0.5659,-0.71279 -1.31884,-0.71279 -0.81008,0 -1.88176,-0.63476 -2.77812,-1.64555 -0.80261,-0.90506 -1.99507,-2.227 -2.64992,-2.93767 -0.65484,-0.71067 -1.19062,-1.89502 -1.19062,-2.63189 0,-0.83351 -0.24886,-1.25679 -0.65861,-1.12018 -0.39735,0.13245 -1.60717,-1.6868 -3.04981,-4.58613 -2.00963,-4.03879 -2.28322,-4.94038 -1.71453,-5.65002 0.56331,-0.70292 0.48787,-1.08437 -0.4503,-2.2770903 -0.81592,-1.03727 -1.04089,-1.86306 -0.81508,-2.99206 0.28754,-1.43772 0.006,-1.79544 -1.29886,-1.6496 -0.17285,0.0193 -0.28729,-2.15514 -0.25431,-4.83210996 0.033,-2.67700004 -0.22902,-6.28073004 -0.58224,-8.00828004 -0.35321,-1.7275697 -0.48055,-3.3944397 -0.28296,-3.7041597 0.19758,-0.30975 0.36289,-0.80129 0.36735,-1.09233 0.004,-0.29104 0.28591,-0.52917 0.62546,-0.52917 1.08348,0 1.40723,-0.74204 0.69708,-1.59771 -0.91361,-1.10083 -0.70917,-8.15863 0.26794,-9.2502 0.39079,-0.43657 0.70305,-1.38907 0.69392,-2.11667 -0.0302,-2.40783 0.77382,-6.87917 1.23699,-6.87917 0.2505,0 0.45546,-0.68548 0.45546,-1.5233 0,-1.19547 0.34349,-1.66558 1.59607,-2.18441 1.20986,-0.50114 1.45984,-0.82525 1.0331,-1.33944 -0.41675,-0.50215 -0.27144,-0.88251 0.55947,-1.4645 0.69973,-0.49012 0.90851,-0.91839 0.55439,-1.13724 -0.8445,-0.52193 -0.68712,-1.34694 0.25695,-1.34694 0.45374,0 0.69323,-0.21317 0.5322,-0.47372 -0.16102,-0.26054 0.0499,-0.60521 0.46875,-0.76593 0.41883,-0.16073 0.9272,-1.19771 1.12971,-2.30441 0.53891,-2.94518 5.20696,-7.3265 8.28515,-7.77624 2.7512,-0.40196 4.71327,-0.0571 5.46021,0.95969 0.42983,0.58513 1.37022,0.69869 4.01242,0.48453 3.8309,-0.31051 5.21575,0.4098 5.21575,2.71288 0,1.0442 0.37601,1.30021 2.51354,1.71139 1.47522,0.28378 2.45889,0.74462 2.38125,1.11558 -0.0852,0.40686 0.62351,0.63206 1.98895,0.63206 1.55474,0 2.54859,0.38076 3.72135,1.4257 0.88005,0.78413 1.49757,1.69286 1.37227,2.0194 -0.12531,0.32654 0.48071,1.40524 1.34671,2.39711 0.86599,0.99187 1.31798,1.88892 1.0044,1.99344 -0.31358,0.10453 -0.57014,0.40244 -0.57014,0.66202 0,0.27342 0.53457,0.26873 1.27072,-0.0112 1.60132,-0.60883 2.93891,0.69189 3.01536,2.93223 0.029,0.85021 0.21495,2.12679 0.4132,2.83685 0.27657,0.99058 0.0222,1.63707 -1.09325,2.77812 -0.79953,0.81792 -1.68801,1.48712 -1.9744,1.48712 -0.28639,0 -0.71114,0.31466 -0.94388,0.69925 -0.65102,1.07576 -5.51726,3.2259 -7.35351,3.24913 -0.90127,0.0114 -2.03957,0.35343 -2.52954,0.76008 -0.93966,0.77985 -6.15053,1.35147 -6.15053,0.6747 0,-0.5554 -2.2174,-0.66124 -2.88603,-0.13775 -0.85352,0.66825 -3.45527,1.01761 -3.77122,0.5064 -0.15509,-0.25095 -0.98284,-0.0938 -1.83945,0.34913 -0.8936,0.4621 -1.55747,0.57405 -1.55747,0.26265 0,-0.29852 -0.33734,-0.54276 -0.74965,-0.54276 -0.41231,0 -0.85745,-0.29766 -0.9892,-0.66146 -0.18331,-0.50617 -0.48018,-0.52013 -1.2646,-0.0595 -0.78775,0.46262 -1.50818,0.42202 -3.11185,-0.17537 -3.7906,-1.41207 -4.32284,-1.41367 -5.71935,-0.0171 -1.21348,1.21348 -1.27068,1.48717 -0.74426,3.56111 0.49169,1.93708 0.44653,2.31584 -0.32778,2.74917 -0.63536,0.35556 -0.78705,0.83933 -0.5186,1.65391 0.20869,0.63324 0.33807,1.72078 0.28751,2.41677 -0.0505,0.69596 0.18137,2.24377 0.51537,3.4395797 0.334,1.19579 0.67879,3.48385 0.76619,5.08458 0.22659,4.14975004 0.77514,6.54952 1.60874,7.03776 0.39736,0.23275 0.72248,1.00989 0.72248,1.72699 0,0.71707 0.20309,1.71727 0.45131,2.22265 0.24821,0.50539 0.90078,1.87135 1.45014,3.03552 0.54936,1.1641603 1.23924,2.2916303 1.53307,2.5054403 0.32165,0.23408 0.23433,0.39201 -0.21947,0.39688 -0.54837,0.006 -0.45093,0.33247 0.35765,1.19872 0.61124,0.65484 1.26055,1.79239 1.44292,2.52791 0.18237,0.73549 1.01873,1.79908 1.85859,2.36357 1.51549,1.01854 2.65079,2.82522 2.65079,4.21838 0,0.39915 0.83344,1.24079 1.85208,1.87034 1.01865,0.62958 1.85209,1.48243 1.85209,1.89526 0,0.41281 0.17859,0.7224 0.39687,0.68792 1.07527,-0.16978 1.62098,0.15679 1.87312,1.12099 0.16688,0.63817 0.72179,1.05833 1.39773,1.05833 0.7088,0 1.30591,0.48644 1.62394,1.32292 0.47017,1.23666 1.10478,1.47537 3.96875,1.49288 0.29104,0.003 1.07335,0.5596 1.73846,1.23955 0.66511,0.67998 1.03632,1.23632 0.8249,1.23632 -0.7231,0 1.66761,1.58702 3.9862,2.64615 1.27393,0.5819 3.00033,1.05801 3.83646,1.05801 1.03131,0 1.52023,0.26829 1.52023,0.83424 0,0.63513 0.47354,0.80208 1.98438,0.69953 1.0914,-0.0741 2.87268,0.1628 3.9584,0.52633 1.08572,0.36354 2.1741,0.53735 2.41864,0.38622 0.24453,-0.15113 1.2309,0.20338 2.19193,0.78782 0.96103,0.58444 2.05215,0.94565 2.42471,0.80266 0.87146,-0.3344 2.76583,1.0332 2.20626,1.59277 -0.23342,0.23344 -1.22103,0.35581 -2.19467,0.27191 -0.97365,-0.0839 -1.90825,0.0708 -2.07689,0.34362 -0.18259,0.29543 -1.22102,0.3193 -2.56698,0.059 -1.2432,-0.24045 -3.15333,-0.44754 -4.24474,-0.46022 -1.0914,-0.0127 -1.98437,-0.24008 -1.98437,-0.50538 0,-0.2653 -0.41672,-0.40256 -0.92604,-0.30506 -0.50933,0.0975 -1.56343,0.1955 -2.34245,0.21775 -0.90156,0.0257 -1.48638,0.37708 -1.6089,0.96652 -0.1668,0.80248 -0.2319,0.7828 -0.4878,-0.14745 z m -8.14941,-71.52821 c 1.03011,0.16716 1.87293,0.0808 1.87293,-0.19197 0,-0.27274 0.33789,-0.4959 0.75087,-0.4959 0.41298,0 1.42501,-0.33426 2.24896,-0.74281 0.82395,-0.40855 2.33153,-1.1077 3.35017,-1.55366 1.01865,-0.44596 1.45634,-0.82607 0.97264,-0.84468 -0.62783,-0.0242 -0.83602,-0.42945 -0.72766,-1.41656 0.1129,-1.02848 -0.44131,-2.00171 -2.16326,-3.79884 -1.27328,-1.32886 -2.32513,-2.79023 -2.33745,-3.24749 -0.0235,-0.8729 -2.75642,-2.85129 -4.8398,-3.50361 -0.67277,-0.21064 -1.89633,-0.94572 -2.71903,-1.6335 -0.82269,-0.68778 -1.68658,-1.25051 -1.91975,-1.25051 -0.23317,0 -1.34599,-0.39993 -2.47294,-0.88873 -1.12695,-0.48881 -2.622,-0.97819 -3.32233,-1.08752 -0.70033,-0.10933 -1.93866,-0.54283 -2.75184,-0.96335 -2.20535,-1.14043 -3.38456,-0.94428 -4.15196,0.69064 -0.37567,0.80036 -1.01122,2.08726 -1.41233,2.85977 -0.40111,0.77251 -0.72929,1.74764 -0.72929,2.16694 0,0.41932 -0.47063,1.1883 -1.04585,1.70887 -0.57522,0.52057 -0.9019,1.17941 -0.72596,1.46409 0.17595,0.28469 0.1108,0.66958 -0.14477,0.85533 -1.36266,0.99035 -2.70303,3.63501 -2.25136,4.4421 0.48359,0.86413 0.2927,4.14852 -0.29653,5.10191 -0.40463,0.6547 0.62296,1.28616 2.33105,1.43243 5.19196,0.44461 6.52616,0.66885 6.82333,1.14679 0.18545,0.29827 1.64686,0.49301 3.24759,0.43276 1.60073,-0.0602 4.33917,0.0322 6.08542,0.20532 2.3961,0.23762 3.33216,0.13006 3.81561,-0.43845 0.4371,-0.51401 1.23557,-0.65676 2.51354,-0.44937 z"/>
    <path style="stroke-width:0.52916664" d="m -462.99673,74.783591 c -0.65485,-0.53459 -1.1911,-1.17197 -1.19169,-1.41634 0,-0.24439 -0.77406,-0.49895 -1.71886,-0.56565 -1.7957,-0.12679 -3.04258,-1.29318 -3.04258,-2.84618 0,-0.50218 -0.29765,-1.03319 -0.66146,-1.17999 -0.52916,-0.21351 -0.52916,-0.27524 0,-0.30868 0.36381,-0.023 0.66146,-0.27708 0.66146,-0.56471 0,-0.2876 -0.5325,-0.46619 -1.18332,-0.39687 -0.78444,0.0836 -1.35763,-0.26551 -1.7005,-1.03563 -0.28448,-0.63894 -1.00793,-1.42431 -1.60764,-1.74527 -1.25463,-0.67146 -3.25144,-3.50184 -3.03607,-4.30345 0.08,-0.29766 -0.0926,-0.39407 -0.38348,-0.21431 -0.297,0.18356 -0.79031,-0.71147 -1.1252,-2.04134 -0.32797,-1.30252 -0.92932,-2.496 -1.3363,-2.65219 -0.40701,-0.15618 -0.73999,-0.74221 -0.73999,-1.30228 0,-0.56007 -0.35718,-1.15538 -0.79375,-1.32291 -0.43656,-0.16754 -0.79375,-0.90739 -0.79375,-1.64412 0,-0.73674 -0.23812,-1.33954 -0.52916,-1.33954 -0.29105,0 -0.52917,-0.368 -0.52917,-0.8178 0,-0.44979 -0.57007,-1.38784 -1.2668,-2.0846 -0.69675,-0.69672 -1.16509,-1.36847 -1.04079,-1.49277 0.48744,-0.48747 -0.51176,-4.60066 -1.11763,-4.60066 -1.92225,0 -3.65953,-4.61214 -2.86141,-7.59645 0.39261,-1.46796 0.37645,-1.48254 -0.63167,-0.5702 -1.0188,0.92199 -1.02986,0.88497 -0.724,-2.42319 0.19645,-2.12511 0.0794,-3.85906 -0.31864,-4.71919 -0.34608,-0.74784 -0.79801,-1.71691 -1.00431,-2.15347 -0.20629,-0.43656 -0.43619,-2.2126 -0.51091,-3.94678 -0.0747,-1.73419 -0.45098,-3.76254 -0.83616,-4.50745 -0.38521,-0.74488 -0.5824,-1.97154 -0.43818,-2.72589 0.20143,-1.0537 0.0161,-1.4359 -0.79904,-1.6491 -0.58367,-0.15263 -1.33633,-0.007 -1.67259,0.32274 -0.45741,0.44911 -0.83505,0.33044 -1.49982,-0.47125 -0.48866,-0.5893003 -1.32204,-0.9853303 -1.85197,-0.8800303 -0.78523,0.15605 -5.12191,-2.26385 -5.12191,-2.85805 0,-0.78939 1.31582,-2.76667 1.68804,-2.53662 0.26125,0.16145 0.83986,-0.009 1.28587,-0.37944 0.55251,-0.45852 0.92451,-0.49482 1.16745,-0.1139 0.19611,0.3075 1.26571,0.66299 2.37691,0.78997 1.52564,0.17433 2.13889,0.01 2.50436,-0.67347 0.40182,-0.75078 0.2834,-0.86157 -0.69744,-0.65241 -1.09627,0.23376 -1.11469,0.19719 -0.2554,-0.50716 0.50932,-0.41748 0.92604,-1.01443 0.92604,-1.32654 0,-0.3121 0.45678,-0.71243996 1.0151,-0.88962996 0.83357,-0.26456 0.93842,-0.58949 0.58642,-1.81687004 -0.23577,-0.82209 -0.2522,-1.78022 -0.0365,-2.12921 0.21569,-0.34898 0.42876,-2.55997 0.47348,-4.91331 0.0447,-2.3533397 0.29747,-4.5404897 0.56165,-4.8603197 0.26416,-0.31984 0.45318,-1.51787 0.42,-2.66231 -0.0348,-1.19989 0.20923,-2.17066 0.57642,-2.29306 0.35023,-0.11674 0.6368,-0.78772 0.6368,-1.49107 0,-0.78396 0.30716,-1.27883 0.79375,-1.27883 0.44096,0 0.79375,-0.47036 0.79375,-1.05833 0,-0.58208 0.19799,-1.05833 0.44,-1.05833 0.39693,0 1.43174,-3.37419 1.8663,-6.08542 0.43809,-2.73324 3.12912,-6.61458 4.58605,-6.61458 0.68127,0 0.97356,-0.586 1.17244,-2.35059 0.14574,-1.29283 0.65294,-2.73859 1.12716,-3.2128 0.47421,-0.47421 0.86222,-1.05619 0.86222,-1.29328 0,-0.23709 0.83145,-0.82564 1.84769,-1.30787 1.12345,-0.53311 1.97564,-1.38645 2.17406,-2.17696 0.17946,-0.71509 0.59814,-1.32764 0.9304,-1.36121 0.33224,-0.0336 0.84222,-0.0931 1.13327,-0.13229 0.29104,-0.0392 1.9137,-1.44505 3.60595,-3.12413 1.69222,-1.67908 3.28036,-2.92705 3.5292,-2.77326 0.24884,0.15379 0.81179,-0.0798 1.25105,-0.519 0.43924,-0.43923 1.06979,-0.79861 1.40124,-0.79861 0.36181,0 0.46839,-0.42292 0.26672,-1.05834 -0.18476,-0.58208 -0.10951,-1.05833 0.16719,-1.05833 0.27673,0 0.62749,0.47562 0.77952,1.05692 0.42365,1.62009 2.526,2.20915 3.81579,1.06915 1.16057,-1.02579 4.53909,-1.32815 5.079,-0.45455 0.18671,0.30211 0.7702,0.46632 1.29661,0.36492 0.86686,-0.16696 0.87935,-0.26216 0.13222,-1.00926 -0.74711,-0.74709 -0.68234,-0.88801 0.6867,-1.494 1.2306,-0.54472 1.69746,-0.53893 2.51137,0.0311 0.54986,0.38514 0.99682,0.81932 0.99324,0.96484 -0.0238,0.96842 0.8577,2.64583 1.39052,2.64583 0.35272,0 0.98454,0.47625 1.40409,1.05833 0.41953,0.58209 1.06741,1.05834 1.43973,1.05834 0.3723,0 0.67694,0.25218 0.67694,0.5604 0,0.30821 0.23812,0.41322 0.52917,0.23335 0.29104,-0.17987 0.52916,0.0697 0.52916,0.55455 0,0.52365 0.29067,0.77005 0.71594,0.60687 0.94879,-0.36409 2.52714,1.46925 1.84883,2.14754 -0.32322,0.32322 0.0344,0.73125 0.98658,1.12566 2.46316,1.02027 3.48556,4.77507 1.50696,5.53433 -0.93951,0.36054 -0.91898,4.58313 0.0222,4.58313 0.71623,0 1.79856,1.57916 1.79856,2.62414 0,0.31738 -0.58608,0.79988 -1.30238,1.07222 -1.23746,0.47048 -1.26395,0.56877 -0.53155,1.97128 0.71699,1.37303 0.69709,1.48792 -0.28512,1.64521 -1.18401,0.1896 -1.14377,0.0105 -1.18208,5.26036 -0.0235,3.2124 -0.16637,3.81937 -0.8722,3.70416 -0.46429,-0.0758 -1.07577,0.38494 -1.35884,1.02383 -0.28305,0.63889 -1.05913,1.29827 -1.72458,1.46529 -0.66546,0.16702 -1.20992,0.61916 -1.20992,1.00474 0,0.38559 -1.19062,1.94287 -2.64583,3.46062 -1.45521,1.51777 -2.64583,2.95718 -2.64583,3.1987197 0,0.24154 -0.83344,0.5955 -1.85209,0.78661 -1.01864,0.19108 -1.85208,0.61026 -1.85208,0.93146 0,0.32123 -0.8818,1.44042 -1.95956,2.48711 -1.59909,1.55303 -1.78837,1.93604 -1.02904,2.08227 1.40859,0.27128 0.71546,1.40981 -0.87519,1.43759 -0.76695,0.0135 -2.05684,0.6087 -2.86639,1.32292004 -0.80955,0.71421 -1.58409,1.37104 -1.72117,1.45962 -0.1371,0.0886 0.10102,0.38259 0.52917,0.65336996 0.68165,0.43108 0.67974,0.50106 -0.0154,0.56306 -0.43656,0.0389 -0.97234,0.0425 -1.19062,0.008 -0.21828,-0.0345 -0.39688,0.29451 -0.39688,0.73107 0,1.03743 -1.56816,1.02251 -2.33206,-0.0222 -0.52009,-0.71128 -0.79907,-0.62526 -2.17498,0.67072 -0.86813,0.81764 -2.29275,1.83968 -3.16587,2.27116 -0.87313,0.43148 -1.99631,1.26074 -2.49595,1.84282 -0.63698,0.74211 -0.91369,0.83648 -0.92604,0.31591 -0.0119,-0.50675 -0.32599,-0.38682 -0.98917,0.3778 -0.69393,0.80013 -1.1344,0.9574 -1.54139,0.55042 -0.32752,-0.32753 -0.87069,-0.38251 -1.2774,-0.12931 -0.65167,0.40574 -2.42475,0.68408 -4.86186,0.76322 -0.53861,0.0175 -1.28222,0.3148 -1.65248,0.66069 -0.54213,0.5064103 -0.50583,0.7841503 0.18653,1.4263203 1.95469,1.81306 2.34263,2.61056 1.66627,3.42551 -0.3542,0.42677 -0.52123,1.08161 -0.37116,1.4552 0.19548,0.48663 0.28586,0.45416 0.31875,-0.11451 0.0419,-0.72474 2.62564,-2.35087 3.05427,-1.92225 0.46696,0.46696 -0.58822,1.95204 -1.2159,1.71119 -0.38967,-0.14951 -0.87198,-0.007 -1.0718,0.31594 -0.21997,0.35595 -0.12229,0.43889 0.24765,0.21024 0.336,-0.2077 0.61093,-0.14147 0.61093,0.14714 0,0.2886 -0.47625,0.6759 -1.05834,0.86063 -1.13612,0.3606 -1.4868,2.58316 -0.50347,3.1909 0.37515,0.23186 0.34075,0.6009 -0.10621,1.13946 -0.54588,0.65775 -0.44492,0.95958 0.57957,1.73235 0.68236,0.5147 1.07633,1.20171 0.87548,1.52667 -0.20081,0.32497 -0.0904,1.10419 0.24538,1.7316 0.47702,0.89133 0.70747,0.98385 1.05402,0.42314 0.24394,-0.3947 0.63468,-0.52646 0.86834,-0.29281 0.23365,0.23365 0.0379,0.70773 -0.43501,1.05352 -0.6922,0.50617 -0.78414,1.12712 -0.47167,3.18603 0.21344,1.40655 0.7198,2.76236 1.12522,3.01289 0.87672,0.54187 0.98973,1.65547 0.22564,2.22401 -0.35192,0.26188 -0.21675,0.65995 0.37917,1.11667 0.50932,0.39037 0.92604,0.89538 0.92604,1.12223 0,0.22688 0.41672,0.75137 0.92605,1.16555 0.67384,0.54797 0.74591,0.82804 0.26458,1.02846 -0.78558,0.32713 -0.8935,1.77474 -0.13229,1.77474 0.29104,0 0.52916,0.49856 0.52916,1.10789 0,0.67202 0.42696,1.21952 1.08527,1.39169 0.88368,0.23108 1.02378,0.5638 0.7542,1.79115 -0.26181,1.19197 -0.046,1.77154 1.0314,2.77005 0.74935,0.69448 1.36247,1.77115 1.36247,2.39263 0,0.78115 0.33017,1.12993 1.06968,1.12993 0.62746,0 1.31884,0.54689 1.67243,1.32291 0.33153,0.72761 0.77886,1.32292 0.99407,1.32292 0.21521,0 0.39132,0.80899 0.39132,1.79771 0,2.47703 0.56277,4.02312 1.46441,4.02312 0.41693,0 0.75809,0.47625 0.75809,1.05834 0,0.72025 0.35277,1.05833 1.10429,1.05833 0.72607,0 1.29773,0.51242 1.66899,1.49603 0.55324,1.46574 2.92806,2.53376 5.95797,2.67944 0.58208,0.028 1.53458,0.112 2.11666,0.18669 0.68919,0.0884 1.01484,-0.1411 0.93364,-0.65799 -0.10306,-0.65585 0.65537,-0.78603 4.36562,-0.74938 4.06043,0.0401 5.59544,-0.35523 3.82887,-0.98616 -1.54099,-0.55036 0.40124,-1.0542 4.87114,-1.26367 4.06138,-0.19032 4.78615,-0.10041 4.78615,0.59372 0,0.4499 -0.23812,0.81799 -0.52917,0.81799 -0.29104,0 -0.52916,0.27141 -0.52916,0.60314 0,0.82013 -1.63825,2.00525 -2.80046,2.02586 -0.92631,0.0164 -1.52006,0.39071 -3.57547,2.2538 -0.55462,0.50271 -1.34668,0.78423 -1.76012,0.62558 -0.41343,-0.15867 -1.19274,0.15523 -1.7318,0.69755 -1.42237,1.431 -3.58545,2.24922 -4.46839,1.69027 -1.14874,-0.72724 -1.53876,-0.58264 -1.53876,0.57046 0,0.58209 -0.26591,1.05834 -0.5909,1.05834 -0.32498,0 -0.4813,-0.419 -0.34739,-0.9311 0.22195,-0.84876 -0.0651,-0.89463 -3.24557,-0.51853 -1.919,0.22693 -4.01238,0.43379 -4.65201,0.45966 -0.6396,0.0259 -1.23492,0.36079 -1.32292,0.74425 -0.12022,0.52398 -0.45579,0.45569 -1.35059,-0.27482 z M -480.18748,3.9422007 c 0.50538,-0.24947 1.66997,-0.84478 2.588,-1.32291 0.91805,-0.4781 2.04914,-0.86932 2.51354,-0.86932 0.46442,0 0.84442,-0.23812 0.84442,-0.52916 0,-0.29104996 0.72842,-0.52916996 1.61872,-0.52916996 0.89029,0 1.48823,-0.21114 1.32873,-0.46919 -0.15949,-0.25807 0.0646,-0.76348 0.49795,-1.12313 0.62786,-0.52107004 0.78793,-0.51659004 0.78793,0.022 0,0.47567 0.2867,0.41649 0.96769,-0.19978004 0.53226,-0.4817 1.22115,-0.8758 1.5309,-0.8758 0.30975,0 0.70022,-0.35719 0.86776,-0.79375 0.16753,-0.43656 0.61849,-0.79375 1.00216,-0.79375 0.38367,0 1.77046,-1.01346 3.08176,-2.25216 1.3113,-1.2387 3.29943,-3.00662 4.41809,-3.92872 1.40163,-1.1553297 1.93032,-1.9464797 1.70069,-2.5449197 -0.25744,-0.67091 -0.10343,-0.79546 0.67723,-0.54769 1.22306,0.3882 2.05973,-0.71187 1.03505,-1.36089 -0.77468,-0.49068 -0.34849,-0.64653 1.40512,-0.51383 0.78505,0.0594 1.25944,-0.42565 1.75406,-1.79351 0.3729,-1.03121 0.90455,-1.87494 1.18147,-1.87494 0.27691,0 0.90434,-0.84066 1.39432,-1.86815 0.55187,-1.15728 1.16314,-1.76366 1.60642,-1.59356 0.39357,0.15103 0.56904,0.0375 0.38997,-0.25225 -0.1791,-0.28977 0.0528,-0.67204 0.51517,-0.84949 0.62616,-0.24028 0.69406,-0.49947 0.26593,-1.01534 -0.6282,-0.75693 -0.51154,-2.42941 0.20601,-2.9531 0.24852,-0.1814 0.54948,-1.84827 0.66879,-3.70417 0.11927,-1.85589 0.31808,-4.64992 0.44174,-6.20894 0.19474,-2.45507 0.0546,-3.00487 -1.04698,-4.10642 -0.69953,-0.69951 -1.14395,-1.60511 -0.98766,-2.01245 0.45323,-1.18106 -1.21359,-3.84142 -2.81901,-4.49933 -2.32267,-0.95186 -3.83516,-1.9316 -4.603,-2.98171 -0.62418,-0.85361 -1.00505,-0.90328 -3.15471,-0.41136 -1.34464,0.3077 -2.4448,0.35436 -2.4448,0.10369 0,-0.77964 -1.31086,-0.50056 -2.20898,0.47029 -0.47115,0.50932 -1.83378,1.62657 -3.028,2.48276 -1.19425,0.85619 -2.17136,1.76454 -2.17136,2.01854 0,0.254 -0.71437,1.06292 -1.5875,1.79761 -0.87312,0.73469 -1.5875,1.65577 -1.5875,2.04685 0,0.39108 -0.47625,0.8622 -1.05833,1.04695 -0.58208,0.18475 -1.09461,0.73657 -1.13895,1.22628 -0.0443,0.48971 -0.10486,1.22807 -0.13454,1.64079 -0.0297,0.41272 -0.32528,0.84085 -0.65696,0.95141 -0.33168,0.11056 -0.48149,0.66585 -0.33293,1.23398 0.14859,0.56812 0.0204,1.03295 -0.28509,1.03295 -0.30538,0 -0.71636,0.50772 -0.91331,1.12826 -0.28131,0.8863 -0.45744,0.9714 -0.82132,0.39687 -0.3474,-0.54855 -0.46522,-0.44319 -0.4713,0.42145 -0.005,0.63406 -0.3823,1.52703 -0.83966,1.98438 -0.45736,0.45735 -0.63595,0.83879 -0.39687,0.84764 0.23907,0.009 0.013,0.26161 -0.5025,0.56169 -0.51544,0.30008 -0.81574,0.7421 -0.66728,0.98228 0.14843,0.24018 -0.0847,0.73095 -0.51805,1.0906 -0.96052,0.79717 -1.02294,1.92828 -0.12645,2.29204 0.49411,0.20049 0.50639,0.3793 0.0485,0.70677 -0.33708,0.2411 -0.77983,1.32828 -0.98388,2.41594 -0.288,1.5352 -0.18796,2.04781 0.44718,2.29154 1.24079,0.47613 0.53583,1.53618 -1.51461,2.27764 -1.94858,0.70461 -2.15511,1.26786 -1.29469,3.53094 0.45591,1.19911 0.41087,1.36858 -0.29204,1.09884 -0.55923,-0.21459 -0.70247,-0.11078 -0.43789,0.31734 0.55483,0.89776 0.72051,7.2891097 0.18897,7.2891097 -0.24146,0 -0.54296,-0.29766 -0.67001,-0.66146 -0.12703,-0.3638 -0.33176,0.35057 -0.45495,1.5875 -0.12319,1.23693 -0.0721,2.24896 0.11351,2.24896 0.1856,0 0.22367,0.59531 0.0846,1.32292004 -0.13909,0.7276 -0.0135,1.32291 0.27906,1.32291 0.29258,0 0.68831,0.83343996 0.87942,1.85208996 0.35539,1.89436 1.08392,2.25562 2.82022,1.39848 z"/>
    <path style="stroke-width:0.52916664" d="m -402.95653,146.68795 c -0.52046,-0.30287 -1.62258,-0.40214 -2.44917,-0.22058 -1.28108,0.28135 -1.55062,0.14004 -1.8261,-0.9575 -0.33176,-1.32184 -2.45139,-2.37027 -2.45139,-1.21254 0,1.01778 -2.11074,0.91792 -2.15844,-0.10213 -0.023,-0.49122 -0.15624,-0.61248 -0.2961,-0.26947 -0.15714,0.38534 -0.83809,0.0127 -1.78192,-0.97481 -0.84018,-0.87918 -1.72161,-1.4786 -1.95871,-1.33207 -0.23709,0.14655 -0.90471,-0.0994 -1.48359,-0.54652 -1.02757,-0.7937 -1.02304,-0.80598 0.19047,-0.51808 0.68363,0.16216 1.10874,0.16063 0.94467,-0.004 -0.16407,-0.16407 -0.0602,-0.74324 0.23085,-1.28706 0.39475,-0.73734 0.34851,-0.98851 -0.18206,-0.98851 -0.39119,0 -1.14033,-0.31377 -1.66481,-0.69726 -0.84252,-0.61608 -0.86223,-0.78862 -0.16926,-1.48159 0.693,-0.69297 0.66916,-0.92654 -0.20465,-2.00564 -1.00812,-1.245 -2.52553,-1.20656 -2.6398,0.0669 -0.16468,1.8348 -1.05077,-3.93854 -0.9914,-6.45936 0.061,-2.59085 -0.0926,-3.03286 -1.42404,-4.09839 l -1.49246,-1.19436 1.32292,-0.0653 c 0.7276,-0.0359 1.6801,-0.0272 2.11666,0.0193 0.70554,0.0754 0.70554,0.0225 0,-0.47654 -0.68958,-0.4876 -0.65897,-0.6641 0.23342,-1.34496 1.00393,-0.76594 1.00081,-0.78369 -0.13676,-0.78369 -0.99391,0 -1.07593,-0.14097 -0.56142,-0.9648 1.4138,-2.26386 4.92318,0.59705 4.79856,3.91186 -0.0367,0.97562 0.16383,1.91635 0.44558,2.09047 0.28176,0.17413 0.51229,0.056 0.51229,-0.26241 0,-0.41619 0.2994,-0.41878 1.06468,-0.009 0.75229,0.40262 0.99547,0.95149 0.82878,1.87071 -0.23971,1.32196 0.37812,1.60938 2.99316,1.39242 0.57049,-0.0473 1.0429,0.42188 1.24817,1.23976 0.22659,0.90278 1.06434,1.64063 2.6684,2.35019 1.28598,0.56885 2.72116,1.41729 3.18929,1.88542 0.56242,0.56242 1.02907,0.6732 1.37567,0.3266 0.34663,-0.34663 0.99539,-0.3438 1.91257,0.008 2.41863,0.92845 13.51142,1.20417 15.36882,0.38201 0.89631,-0.39675 1.62963,-0.91538 1.62963,-1.15255 0,-0.23718 0.27424,-0.26173 0.60944,-0.0546 0.33517,0.20714 0.93048,-0.0624 1.32291,-0.5991 0.39241,-0.53665 0.71348,-0.82354 0.71348,-0.63754 0,0.78931 3.16092,-0.84545 3.46062,-1.78974 0.23235,-0.73211 0.62698,-0.9416 1.34456,-0.71388 0.5684,0.18042 1.01565,0.0736 1.01565,-0.24246 0,-0.31065 0.36486,-0.56483 0.81079,-0.56483 0.44596,0 0.99174,-0.48914 1.2129,-1.08696 0.22117,-0.59786 0.9874,-1.37872 1.70276,-1.7353 0.71532,-0.35655 1.61128,-1.29617 1.99096,-2.08801 0.37968,-0.79185 0.92136,-1.43973 1.20372,-1.43973 0.28237,0 0.74893,-0.6195 1.03683,-1.37671 0.38298,-1.00735 0.76988,-1.28289 1.44211,-1.02698 0.73654,0.28041 0.78756,0.21765 0.25722,-0.31663 -0.88847,-0.89503 -0.83444,-1.51302 0.1323,-1.51302 0.43656,0 0.79375,-0.21034 0.79375,-0.46744 0,-0.25709 0.50019,-0.59825 1.11156,-0.75813 0.61138,-0.15986 0.97417,-0.513 0.80624,-0.78476 -0.16796,-0.27172 0.16529,-0.91995 0.74049,-1.44052 0.57523,-0.52057 1.04587,-1.37234 1.04587,-1.8928 0,-0.52049 0.41672,-1.25749 0.92604,-1.6378 1.27162,-0.94951 2.69481,-3.70724 2.37475,-4.60158 -0.16087,-0.44948 -0.0308,-0.59153 0.33472,-0.36563 0.33261,0.20556 0.59783,0.0496 0.59783,-0.3516 0,-0.39661 0.61626,-1.95782 1.36951,-3.46938 0.75324,-1.51156 1.42007,-3.046599 1.48187,-3.411189 0.0618,-0.3646 0.4948,-1.49635 0.96224,-2.515 0.46747,-1.01865 1.00145,-2.92365 1.1866,-4.23333 0.18516,-1.30969 0.81635,-3.37752 1.40261,-4.59518 0.58629,-1.21767 1.10305,-2.70595 1.14835,-3.30729 0.0453,-0.60135 0.38293,-1.09337 0.75028,-1.09337 0.4599,0 0.56901,-0.4944 0.35041,-1.5875 -0.21804,-1.09013 -0.10917,-1.5875 0.34748,-1.5875 0.47045,0 0.58187,-0.61976 0.38081,-2.1187 -0.32364,-2.41287 0.0399,-4.35861 0.73414,-3.92951 0.25797,0.15941 0.46903,-0.20045 0.46903,-0.79971 0,-0.59925 -0.21524,-1.08958 -0.47831,-1.08958 -0.45276,0 -0.55267,-1.17403 -0.5179,-6.08541 0.0225,-3.16773 0.0708,-3.43959 0.61185,-3.43959 0.27366,0 0.36944,-0.3339 0.21283,-0.74199 -0.15661,-0.40812 -0.17333,-0.85344 -0.0371,-0.9896 0.44678,-0.44677 0.61894,-11.17494 0.2209,-13.76481 -0.21865,-1.42264 -0.79113,-2.82578 -1.30677,-3.20284 -0.79658,-0.58245 -0.8159,-0.75549 -0.14632,-1.31117 0.8359,-0.69376 0.67019,-4.97316 -0.20532,-5.30137 -0.25876,-0.097 -0.47048,-0.43437 -0.47048,-0.74968 0,-0.31527 0.1474,-0.42584 0.32758,-0.24566 0.38928,0.38928 1.78909,-0.90702 1.78909,-1.6568 0,-0.28757 -0.28453,-0.61772 -0.63228,-0.73363 -0.42436,-0.14145 -0.66968,-1.97459 -0.74607,-5.57464 -0.0626,-2.95013 -0.27127,-6.08089 -0.46373,-6.95724 l -0.34997,-1.59337 -1.80784,1.17078 c -0.99433,0.64394 -1.81081,1.43634 -1.81441,1.76087 -0.004,0.32457 -0.50559,1.22452 -1.11553,1.99994 -0.60992,0.77541 -0.97113,1.76905 -0.80267,2.20805 0.18023,0.46966 -0.0618,0.93948 -0.58785,1.14136 -1.28911,0.49466 -3.32547,2.35701 -3.05528,2.79416 0.12647,0.20463 -0.33919,0.63137 -1.03478,0.94829 -0.92044,0.41939 -1.18722,0.8726 -0.98002,1.66489 0.27636,1.05683 -0.34277,1.46656 -1.08879,0.72054 -0.87476,-0.87476 -2.02321,-0.47755 -3.38071,1.16933 -0.8006,0.97126 -2.35228,2.37442 -3.44818,3.11811 -1.7453,1.18441 -2.44793,1.3321 -5.66211,1.1902 -2.2487,-0.0992 -3.54804,0.0346 -3.35574,0.34576 0.19423,0.31425 -0.37015,0.3578 -1.48116,0.11427 -0.98724,-0.2164 -2.86653,-0.41409 -4.17621,-0.43931 -2.56866,-0.0495 -3.72616,-1.01502 -4.23937,-3.53631 -0.23177,-1.13877 -0.51631,-1.30469 -1.98437,-1.15719 -1.30342,0.13095 -1.71376,-0.0349 -1.71376,-0.6927 0,-0.47567 -0.2217,-0.72784 -0.49261,-0.56042 -0.75239,0.46501 -1.32418,-0.80639 -1.41774,-3.1524 -0.11406,-2.86017 -0.0913,-2.80255 -1.07542,-2.71931 -0.478,0.0404 -0.98674,-0.26212 -1.13054,-0.6723 -0.18307,-0.52221 0.006,-0.643 0.63198,-0.40294 0.96978,0.37214 0.75944,-0.25545 -0.62764,-1.87267 -0.81095,-0.94546 -0.51647,-3.55112 0.47024,-4.16096 0.32229,-0.19915 0.31332,-0.82513 -0.0246,-1.71376 -0.68505,-1.80189 -0.3181,-11.1188003 0.448,-11.3741703 0.31483,-0.10496 0.57245,-0.65718 0.57245,-1.22719 0,-0.57 0.47625,-1.54755 1.05833,-2.17234 0.58209,-0.62479 1.05834,-1.58964 1.05834,-2.14408 0,-0.55446 0.42669,-1.11968996 0.94818,-1.25604996 0.52152,-0.1364 0.98698,-0.76893 1.03437,-1.40568004 0.0474,-0.63672 0.51866,-1.5149 1.0473,-1.95146 0.52863,-0.43656 1.27984,-1.86531 1.66933,-3.175 1.03746,-3.48848 2.3689,-6.3350297 2.97373,-6.3575697 0.29104,-0.0109 0.9787,-0.99372 1.52813,-2.18416 1.13403,-2.4571 6.28732,-7.86243 7.49581,-7.86243 0.43936,0 0.93591,-0.35719 1.10344,-0.79375 0.16753,-0.43656 0.75536,-0.79375 1.3063,-0.79375 0.55094,0 1.00174,-0.23813 1.00174,-0.52917 0,-0.29104 0.33734,-0.52916 0.74964,-0.52916 0.4123,0 0.82902,-0.23124 0.92605,-0.51387 0.097,-0.28262 0.75953,-0.60215 1.4723,-0.71006 1.84303,-0.27904 2.68242,-1.80912 1.48222,-2.70186 -0.50932,-0.37884 -0.92604,-0.96021 -0.92604,-1.29192 0,-0.33172 -0.26361,-0.60313 -0.58579,-0.60313 -0.32218,0 -0.45336,-0.34506 -0.29155,-0.7668 0.19667,-0.51251 0.04,-0.66922 -0.47254,-0.47255 -0.47839,0.18358 -0.76679,-0.0336 -0.76679,-0.57754 0,-1.16292 -2.13572,-4.00394 -3.00995,-4.00394 -0.38182,0 -0.69422,-0.34881 -0.69422,-0.77513 0,-0.64151 -2.07287,-2.25798 -2.51354,-1.96012 -0.0728,0.0492 -0.42995,0.0858 -0.79375,0.0813 -0.46813,-0.006 -0.44349,-0.14609 0.0843,-0.4802 0.41015,-0.25966 1.065,-0.3496 1.45521,-0.19987 0.39018,0.14973 0.70945,0.009 0.70945,-0.31354 0,-0.8849 -1.14033,-0.69975 -2.91042,0.47255 -2.02401,1.34044 -2.75283,1.33019 -3.18923,-0.0448 -0.26321,-0.82928 -0.64723,-1.02862 -1.54662,-0.80288 -0.90408,0.2269 -1.73797,-0.21479 -3.41199,-1.80724 -1.21851,-1.15915 -2.46153,-2.10754 -2.76225,-2.10754 -0.30073,0 -0.47805,-0.65499 -0.3941,-1.45553 0.17336,-1.65259 -0.43315,-2.94467 -1.16879,-2.49001 -0.81717,0.50504 -1.6287,-2.32689 -1.00225,-3.49744 0.58309,-1.08949 1.3661,-1.3419 1.65717,-0.53421 0.27757,0.77026 1.70585,0.90627 1.80597,0.17198 0.0496,-0.3638 0.11998,-0.84737 0.15636,-1.07461 0.0541,-0.33816 1.16721,-0.91499 3.77032,-1.9539 0.14552,-0.0581 0.68431,-0.29027 1.19734,-0.51597 0.52904,-0.23274 1.23727,-0.15769 1.63619,0.1734 0.38687,0.32108 0.85267,0.43453 1.03507,0.25211 0.18243,-0.18242 0.74938,0.39617 1.25992,1.28573 0.84074,1.4649 2.80898,2.18057 2.80898,1.02138 0,-0.2499 0.36406,-0.0903 0.80904,0.35471 0.445,0.44498 1.18684,0.66409 1.64857,0.48691 0.6778,-0.2601 0.76626,-0.0774 0.45913,0.94853 -0.37105,1.23951 -0.36,1.24471 0.45127,0.21234 0.67299,-0.85642 0.83487,-0.89786 0.84849,-0.21723 0.009,0.4626 0.61214,1.11234 1.33975,1.44386 0.7276,0.33152 1.32291,0.99053 1.32291,1.46447 0,0.52816 0.29171,0.74977 0.75359,0.57253 0.8577,-0.32913 3.61437,2.17582 3.17566,2.88568 -0.15814,0.2559 0.0579,0.46527 0.48006,0.46527 0.4222,0 0.91305,0.57944 1.0908,1.28765 0.17775,0.7082 0.81285,1.44306 1.41131,1.63301 1.00949,0.3204 1.02995,0.43418 0.28295,1.57424 -0.70565,1.07695 -0.70948,1.30831 -0.0311,1.87137 0.61539,0.51073 0.77581,0.49355 0.78226,-0.0838 0.005,-0.48547 0.137,-0.53326 0.39688,-0.14414 0.21381,0.32017 0.74596,0.71808 1.18253,0.88427 0.62087,0.23635 0.58682,0.31125 -0.15635,0.34393 -0.82298,0.0362 -0.77311,0.21878 0.3728,1.36469 0.72761,0.7276 1.57189,1.32292 1.87616,1.32292 0.30427,0 0.55322,0.46877 0.55322,1.04172 0,0.76951 0.24199,0.95244 0.92604,0.70006 0.50932,-0.18792 1.08059,-0.57233 1.2695,-0.85425 0.19312,-0.2882 0.77224,-0.32802 1.32292,-0.091 1.69433,0.72936 2.30237,0.72064 2.30237,-0.033 0,-0.4342 -0.32427,-0.60588 -0.79975,-0.42342 -0.53523,0.20538 -0.70604,0.0627 -0.51644,-0.43142 0.15581,-0.40606 0.89156,-0.78864 1.63499,-0.85017 1.24079,-0.10269 1.32313,0.0182 1.00356,1.47314 -0.19147,0.87175 -0.15062,1.58136 0.0908,1.5769 0.64154,-0.0118 1.85963,-0.84884 1.80705,-1.24168 -0.14263,-1.06579 0.0767,-3.1552 0.27962,-2.66358 0.13271,0.3215 0.82827,0.47233 1.54572,0.33518 0.9784,-0.18703 1.30447,-0.0214 1.30447,0.66269 0,0.59332 0.27739,0.80561 0.79375,0.60747 1.32766,-0.50947 0.90776,1.15058 -0.52916,2.0921 -1.0323,0.67639 -1.32292,1.31479 -1.32292,2.90601 0,1.59522 0.1728,1.97288 0.79375,1.73461 0.43656,-0.16752 0.79375,-0.041 0.79375,0.28119 3e-5,0.32218 -0.28363,0.58578 -0.63029,0.58578 -0.35923,0 -0.25569,0.28448 0.24074,0.66146 0.47911,0.3638 1.09961,1.27837 1.37893,2.03238 0.40894,1.10395 0.31671,1.5087 -0.47365,2.07836 -0.77359,0.55756 -0.86456,0.926 -0.4294,1.73908 0.4009,0.74911 0.37584,1.1406 -0.0916,1.42946 -0.39206,0.24232 -0.43315,0.47456 -0.10509,0.59416 0.2962,0.10799 0.62079,0.79166 0.72133,1.51927 0.10052,0.7276 0.51398,1.58238 0.91879,1.8995 0.51528,0.40368 0.78883,2.13716 0.91216,5.7804997 0.0969,2.86215 0.40936,5.43713 0.69442,5.72219 0.33827,0.33825 0.3366,0.85773 -0.005,1.49553 -0.28766,0.5375 -0.32152,0.97727 -0.0753,0.97727 0.24628,0 0.75743,1.20830004 1.13591,2.68507 0.37849,1.4768 1.02489,2.81429 1.43648,2.97222 0.5737,0.22016 0.60656,0.45792 0.14081,1.0191 -0.33409,0.40256 -0.44574,0.73194 -0.24807,0.73194 0.19767,0 -0.007,0.52237 -0.45366,1.16081 -0.72821,1.03965 -0.72898,1.25367 -0.007,2.0511 0.44313,0.48967 0.85503,2.0310703 0.91533,3.4253503 0.0673,1.55702 0.36991,2.58778 0.7843,2.67171 0.37108,0.0752 0.43061,0.0156 0.1323,-0.13232 -0.81902,-0.40621 -0.65006,-1.23915 0.2514,-1.23915 0.49943,0 0.79375,0.50374 0.79375,1.35858 0,1.14446 -0.17727,1.30234 -1.12461,1.00164 -0.78607,-0.24948 -1.00975,-0.17111 -0.74308,0.26037 0.20981,0.33952 0.45014,2.20128 0.53403,4.13727 0.0862,1.99008 0.40921,3.60552 0.74309,3.71683 0.69617,0.23204 0.81703,5.92947 0.12575,5.92947 -0.25564,0 -0.70657,0.9525 -1.00205,2.11667 -0.48567,1.91344 -0.44104,2.11667 0.46479,2.11667 0.67001,0 1.02042,0.39457 1.05746,1.19062 0.0305,0.65485 0.16108,2.8575 0.29028,4.89479 0.26196,4.13152 0.34903,7.40347 0.23939,8.99584 -0.0401,0.58208 0.0496,2.07036 0.19921,3.30729 0.14964,1.23693 0.0831,2.24896 -0.14793,2.24896 -0.23101,0 -0.47615,0.83343 -0.54475,1.85208 -0.0818,1.21473 0.10858,1.85489 0.55329,1.86021 0.47408,0.006 0.43926,0.1624 -0.1157,0.52104 -0.43656,0.28215 -0.60166,0.51663 -0.36687,0.52107 0.23476,0.004 0.0562,0.53734 -0.39688,1.1842 -0.92104,1.31495 -1.11008,2.76748 -0.29458,2.26348 0.30747,-0.19002 0.52916,0.33258 0.52916,1.24759 0,0.86606 -0.21505,1.65402 -0.47786,1.75104 -0.26284,0.097 -0.6409,1.72418 -0.84016,3.61595 -0.19926,1.89177 -0.56091,3.6472 -0.8037,3.90097 -0.24278,0.25373 -0.30625,0.81354 -0.14107,1.24401 0.16518,0.43048 0.0243,0.95332 -0.31324,1.1619 -0.33748,0.20857 -0.69813,1.58546 -0.80143,3.05974 -0.10329,1.47431 -0.32599,2.9041 -0.49485,3.17733 -0.16888,0.27326 -0.36562,1.48947 -0.43719,2.70269 -0.0928,1.57316 -0.5674,2.68463 -1.65444,3.87477 -1.12559,1.23238 -1.34972,1.77673 -0.85691,2.08132 0.53644,0.33153 0.53533,0.57156 -0.006,1.22336 -0.37015,0.446 -0.53123,1.04026 -0.35798,1.32058 0.17325,0.28033 -0.0437,0.86837 -0.48209,1.30678 -0.43839,0.43839 -0.67287,1.1208 -0.52105,1.51646 0.15182,0.39563 -0.20606,1.23682 -0.79526,1.86926 -0.58922,0.63246 -1.07132,1.718149 -1.07132,2.412649 0,0.69451 -0.58079,1.93866 -1.29064,2.76477 -0.70987,0.8261 -1.24566,1.75611 -1.19062,2.06668 0.055,0.31057 -0.18246,0.5102 -0.52771,0.4436 -0.34526,-0.0666 -0.59225,0.35015 -0.54886,0.92604 0.0434,0.57592 0.26834,1.04709 0.49993,1.04709 0.54923,0 -0.58846,2.01555 -2.11537,3.74764 -0.66249,0.7515 -1.30286,2.14342 -1.42306,3.09317 -0.19674,1.55461 -1.46878,3.15237 -2.54489,3.19653 -0.22548,0.009 -0.64175,0.62648 -0.92506,1.3716 -0.28329,0.74512 -0.73428,1.21928 -1.00217,1.05371 -0.26791,-0.16558 -0.64008,0.39552 -0.82708,1.24687 -0.18699,0.85135 -0.71668,1.69249 -1.17714,1.86915 -0.46042,0.17669 -0.69535,0.46307 -0.52202,0.63638 0.57875,0.57875 -1.1307,1.77845 -2.03798,1.43028 -0.78171,-0.29996 -0.81388,-0.19243 -0.25487,0.85209 0.46268,0.8645 0.47971,1.35543 0.0616,1.77358 -0.41815,0.41812 -0.5782,0.40241 -0.5782,-0.0568 0,-1.16144 -0.9385,-0.65532 -1.27563,0.68792 -0.18262,0.7276 -0.68469,1.32291 -1.1157,1.32291 -0.43103,0 -0.78367,0.23813 -0.78367,0.52917 0,0.29104 -0.31152,0.52917 -0.69225,0.52917 -0.38074,0 -1.39277,0.9485 -2.24896,2.1078 -0.85619,1.15927 -1.97342,2.24689 -2.48275,2.41689 -0.50932,0.17002 -0.92604,0.5312 -0.92604,0.80264 0,0.27143 -0.3888,0.4935 -0.86397,0.4935 -0.47519,0 -1.30863,0.51268 -1.85211,1.13932 -0.66373,0.76531 -0.99076,0.89559 -0.99621,0.39688 -0.005,-0.45035 -0.16105,-0.53166 -0.39687,-0.2067 -0.21381,0.29467 -1.09583,0.57037 -1.96001,0.6127 -0.86418,0.0423 -1.65793,0.33703 -1.7639,0.6549 -0.10593,0.31784 -0.5058,0.5779 -0.88855,0.5779 -0.38277,0 -2.05396,0.71437 -3.71379,1.5875 -1.65984,0.87312 -3.74888,1.5875 -4.6423,1.5875 -0.8934,0 -2.07317,0.40616 -2.62168,0.90257 -0.84466,0.76438 -1.16565,0.79743 -2.09698,0.2158 -0.64312,-0.40164 -1.23497,-0.48279 -1.4256,-0.19548 -0.61942,0.93356 -3.92383,1.79388 -4.33496,1.12864 -0.24876,-0.40249 -0.57888,-0.22633 -0.97981,0.52281 -0.65415,1.22227 -1.86677,1.41933 -3.36576,0.54698 z M -370.1918,30.025671 c 1.0078,-1.03775 2.29762,-1.92185 2.86631,-1.96469 0.61108,-0.046 1.03397,-0.46466 1.03397,-1.02362 0,-0.52014 0.28231,-0.94573 0.62735,-0.94573 0.85024,0 3.07681,-2.14164 3.07681,-2.95947 0,-0.36208 0.9525,-1.64967 2.11667,-2.86135 1.16417,-1.21166 2.11667,-2.66732 2.11667,-3.23477 0,-0.56748 0.31588,-1.153 0.70199,-1.30114 0.49591,-0.19032 0.69011,-1.35052 0.66146,-3.95206 -0.0222,-2.0254603 0.0922,-3.6827103 0.25437,-3.6827603 0.16219,-5e-5 0.21659,-0.77401 0.12086,-1.7199 -0.0957,-0.94588 -0.17317,-2.85088 -0.17214,-4.23333 0,-1.47449996 -0.23841,-2.51353996 -0.57946,-2.51353996 -0.31975,0 -0.46085,-0.46086 -0.31353,-1.02415004 0.15621,-0.59741 -0.0435,-1.14364 -0.47946,-1.31091 -0.59107,-0.22682 -0.61854,-0.49284 -0.13139,-1.27288 0.65387,-1.04701 0.22828,-4.85873 -0.54247,-4.85873 -0.23749,0 -0.31801,-0.59531 -0.17891,-1.3229197 0.14761,-0.77224 0.007,-1.32291 -0.33798,-1.32291 -0.34663,0 -0.59084,-0.97457 -0.59084,-2.35775 0,-1.6423 -0.40146,-2.94928 -1.32292,-4.30717 -0.7276,-1.07219 -1.32292,-2.39245 -1.32292,-2.93392 0,-0.59525 -0.37661,-0.98449 -0.9525,-0.98449 -0.52387,0 -1.2674,-0.29766 -1.65229,-0.66146 -0.57685,-0.54528 -0.59518,-0.45798 -0.10438,0.49706 0.57864,1.12598 -0.0774,2.31675 -0.85045,1.54367 -0.45186,-0.45184 -1.85283,1.70139 -1.4895,2.28926 0.16714,0.27042 0.0619,0.64124 -0.23392,0.82405 -0.31133,0.19241 -0.56364,-0.29359 -0.59917,-1.15406 -0.037,-0.89456 -0.15775,-1.1177 -0.3034,-0.56039 -0.13309,0.50932 -0.58171,0.92604 -0.99695,0.92604 -0.41521,0 -0.75494,0.48214 -0.75494,1.07143 0,0.63283 -0.50101,1.26191 -1.22388,1.53674 -0.67313,0.25593 -1.91209,1.32852 -2.75325,2.38355 -0.86622,1.08644 -1.83894,1.79946 -2.24322,1.64431 -0.47001,-0.18037 -0.57005,-0.0501 -0.29295,0.38148 0.63625,0.99089 0.55719,3.0366497 -0.11734,3.0366497 -0.35944,0 -0.50231,0.62751 -0.36142,1.5875 0.18775,1.2792 0.0415,1.5876 -0.75309,1.58797 -0.80724,0 -0.9861,0.40833 -0.9861,2.24896 0,1.23666 0.18246,2.52971004 0.4055,2.87338004 0.47157,0.7267 -0.42132,1.44339996 -1.19925,0.9626 -0.29104,-0.17986 -0.52916,0.0517 -0.52916,0.51455996 0,0.46287 0.35718,0.97865 0.79375,1.14618 0.43656,0.16753 0.79375,0.66178 0.79375,1.09834 0,0.49995 -0.30398,0.67709 -0.82124,0.4786 -0.46893,-0.17994 -0.68316,-0.0917 -0.49938,0.20564 0.17701,0.28643 -0.24508,1.05759 -0.938,1.71373 -1.24531,1.17922 -2.22163,2.93695 -2.05875,3.70649 0.0462,0.2182903 -0.12864,0.3968803 -0.38854,0.3968803 -0.2599,0 -0.62254,0.39087 -0.80584,0.8686 -0.28078,0.73165 -0.20423,0.76147 0.48532,0.18918 0.45027,-0.37367 0.94451,-0.55356 1.09832,-0.39976 0.15382,0.15383 -0.32819,0.75782 -1.07112,1.3422 -1.62621,1.27916 -1.6243,1.24066 -0.27022,5.47148 0.59431,1.85693 0.9538,3.88477 0.79886,4.5063 -0.16034,0.64325 0.0434,1.39986 0.47292,1.75636 0.41505,0.34446 0.90072,1.29145 1.07929,2.10444 0.31366,1.42809 2.78614,4.11276 3.56401,3.86987 0.20961,-0.0654 0.63471,0.35492 0.94467,0.93409 0.43582,0.81436 1.10919,1.05307 2.97035,1.05307 2.06361,0 2.66795,-0.26898 4.23907,-1.8868 z m 21.72425,-12.49992 c -0.16894,-0.42211 -0.29432,-0.29673 -0.3197,0.31973 -0.023,0.55782 0.10208,0.87037 0.27792,0.69453 0.17584,-0.17584 0.19463,-0.63225 0.0417,-1.01426 z m -37.04167,-2.11666 c -0.16893,-0.42212 -0.29432,-0.29673 -0.31969,0.31972 -0.023,0.55782 0.10207,0.87037 0.27792,0.69453 0.17584,-0.17584 0.19462,-0.63225 0.0418,-1.01425 z m 42.87383,-40.36763 c -0.0595,-0.0141 -0.67866,-0.49939 -1.37586,-1.07837 l -1.26762,-1.05269 0.63063,1.20156 c 0.34687,0.66086 0.47564,1.45234 0.28623,1.75886 -0.18944,0.30651 0.14589,0.25107 0.7452,-0.1232 0.59931,-0.37427 1.04095,-0.69204 0.98142,-0.70616 z"/>
    <path style="stroke-width:0.52916664" d="m -248.124,97.926011 c 0.0936,-0.94589 0.6473,-2.12857 1.23049,-2.62821 0.95253,-0.81608 0.96618,-0.91022 0.13431,-0.92604 -1.12245,-0.0214 -1.11951,0.0455 -0.10515,-2.38226 0.45151,-1.08061 0.59756,-1.82668 0.32454,-1.65796 -0.273,0.16873 -0.79063,-0.0478 -1.15028,-0.48114 -0.52504,-0.63262 -0.51077,-0.78952 0.0723,-0.79603 0.48093,-0.005 0.53131,-0.13941 0.14915,-0.39687 -0.91591,-0.61701 -1.90463,-8.20693 -1.84584,-14.16984 0.0329,-3.33576 -0.16463,-5.59856 -0.5071,-5.81023 -0.35343,-0.21844 -0.37828,-0.57393 -0.0672,-0.96102 1.43224,-1.78204 1.68116,-10.47721 0.37245,-13.01022 -0.79039,-1.52985 -0.68611,-13.4275 0.12716,-14.5088 0.25318,-0.3366 0.50297,-1.8842 0.5551,-3.43911 0.0814,-2.42728 -0.0552,-2.86631 -0.96573,-3.1044 -0.58328,-0.15254 -1.0605,-0.48768 -1.0605,-0.74478 0,-1.09143 0.10239,-1.2546 0.71085,-1.13271 0.42188,0.0845 0.93917,-1.62131 1.51098,-4.98266 0.57743,-3.39418 1.14803,-5.26697 1.6986,-5.57511 0.6036,-0.33779 0.75015,-0.96067 0.53883,-2.29031 -0.18675,-1.17515 -0.0101,-2.22649 0.49575,-2.94852 0.78703,-1.12363 0.61732,-2.54005 -0.3845,-3.20926 -0.34253,-0.22884 -0.35284,-0.60793 -0.0288,-1.05833 0.27771,-0.386 0.4712,-3.3211903 0.43003,-6.5226403 -0.0412,-3.20146 0.10197,-6.05895996 0.31811,-6.35 0.21613,-0.29105 0.54954,-1.39896 0.74088,-2.46206 0.40471,-2.24843 2.2111,-3.67741 5.0555,-3.99917 3.06906,-0.34719 3.66509,0.52236 3.78328,5.51944 0.0603,2.55053004 -0.13883,4.64111 -0.48144,5.05394 -0.43037,0.51856 -0.37018,1.52419 0.22844,3.81654 0.6028,2.30835 0.68221,3.6684703 0.3074,5.2647803 -0.27797,1.1838 -0.52777,2.9858 -0.5551,4.00444 -0.0273,1.01865 -0.39296,2.80459 -0.81248,3.96875 -0.42627,1.1829 -0.91435,5.26822 -1.1063,9.26041 -0.18894,3.92907 -0.45858,9.525 -0.59918,12.43542 -0.1406,2.91042 -0.34922,5.56964 -0.4636,5.90934 -0.11435,0.33972 0.11573,0.74186 0.51133,0.89368 0.39561,0.15179 0.60722,0.70728 0.47025,1.23441 -0.16386,0.63069 0.15512,1.13935 0.93289,1.48757 1.73281,0.77584 1.87002,1.85208 0.23611,1.85208 -1.31045,0 -1.8144,1.07715 -1.36165,2.91042 0.0719,0.29104 0.0978,3.658 0.0577,7.4821 -0.0622,5.92868 0.0517,7.0008 0.77349,7.27776 1.04473,0.40092 1.80932,-0.0279 1.80932,-1.01478 0,-0.80857 1.13835,-3.59437 2.75064,-6.73137 0.5603,-1.09019 0.88635,-2.19633 0.72458,-2.45811 -0.16179,-0.26176 0.0617,-0.61249 0.49655,-0.77936 0.43489,-0.1669 0.79073,-0.70514 0.79073,-1.19613 0,-0.49099 0.585,-1.6597 1.30003,-2.59712 0.71501,-0.93745 1.15157,-1.85291 0.97012,-2.03433 -0.18142,-0.18145 0.0396,-0.32991 0.4912,-0.32991 0.84146,0 2.82456,-2.52793 2.35305,-2.99947 -0.38701,-0.38701 1.15226,-3.83601 2.54301,-5.69815 1.5761,-2.11029 3.45761,-6.458 3.01054,-6.95658 -0.19206,-0.21418 0.0675,-0.23988 0.57684,-0.0571 0.50933,0.18275 0.92605,0.15007 0.92605,-0.0727 0,-0.44942 1.21266,-2.11453 3.07633,-4.22405 1.11514,-1.26225 1.14186,-1.41467 0.29972,-1.71008 -0.64577,-0.22651 -0.7357,-0.44103 -0.29824,-0.71141 0.34449,-0.21291 0.86448,-0.23993 1.15552,-0.0601 0.29104,0.17989 0.52917,0.062 0.52917,-0.26205 0,-0.324 0.71326,-1.35009 1.58503,-2.28017 0.87178,-0.93012 1.58616,-2.10783 1.5875,-2.61716 0.003,-0.50932 0.45601,-1.37961 1.0104,-1.93397 0.55435,-0.55435 0.97107,-1.44732 0.92604,-1.98437 -0.0464,-0.55316 0.2622,-0.97454 0.71186,-0.97208 0.43656,0.003 1.27,-0.56441 1.85208,-1.25955 2.16824,-2.58939 4.49604,-4.83023 5.01772,-4.83023 0.2962,0 0.53919,-0.29766 0.54004,-0.66146 0,-0.3638 0.728,-1.13771 1.61592,-1.71979 0.90921,-0.59603 1.74646,-1.694 1.91672,-2.51354 0.16626,-0.8003703 0.62973,-1.4552103 1.02991,-1.4552103 0.40019,0 0.72761,-0.29906 0.72761,-0.66455 0,-0.36553 0.70054,-0.97468 1.55675,-1.35367 0.8562,-0.37901 1.86682,-1.38964 2.24584,-2.24586 0.37899,-0.85622 0.86908,-1.55675 1.08908,-1.55675 0.22,0 0.4,-0.38267 0.4,-0.85035 0,-0.59139 0.28199,-0.743 0.92604,-0.49784 0.70471,0.26832 0.77935,0.20471 0.31228,-0.26609 -0.4663,-0.47000996 -0.2794,-0.99387996 0.77788,-2.18050996 0.76539,-0.85902004 2.24258,-2.78911004 3.28261,-4.28908004 1.05608,-1.5231 2.46491,-2.88727 3.19087,-3.08975 2.01359,-0.56161 4.73948,-0.52644 4.73948,0.0611 0,0.29104 0.65485,0.53676 1.45521,0.54599 0.80036,0.009 1.90698,0.35883 2.4592,0.77682 0.55221,0.41799 1.1821,0.64989 1.39975,0.51538 0.59563,-0.36812 1.11897,1.38263 0.6174,2.06534 -0.24016,0.32692 -0.35512,1.1897 -0.25548,1.9173 0.0997,0.7276 0.18741,1.74479004 0.195,2.26041004 0.008,0.5156 0.23752,0.7992 0.51094,0.63022 0.27342,-0.16899 0.49715,0.0499 0.49715,0.48651 0,0.43655996 -0.21577,0.92709996 -0.47951,1.09007996 -0.26371,0.16299 -0.36306,0.74153 -0.22079,1.28561 0.14229,0.54409 0.007,1.89969 -0.29991,3.01244 -0.65595,2.37565 -0.29937,3.04237 0.83037,1.55266 0.7556,-0.99634 0.781,-0.95681 0.4391,0.68397 -0.23415,1.12366 -0.12369,2.0296803 0.31137,2.5538703 0.55059,0.66344 0.5349,0.90231 -0.0855,1.30273 -0.55774,0.35994 -0.41542,0.44185 0.53525,0.30808 0.71223,-0.10025 1.40171,-0.50253 1.5322,-0.89398 0.1305,-0.39145 0.96481,-1.51124 1.85402,-2.4884303 0.88924,-0.97718 1.98567,-2.27261 2.43655,-2.87869 0.45085,-0.60608 1.4746,-1.82153 2.27496,-2.70095 0.80037,-0.87945 1.45521,-1.76358 1.45521,-1.96474 0,-0.20116 0.59531,-0.63699 1.32292,-0.96850996 0.77602,-0.35356 1.32292,-1.04494 1.32292,-1.67243 0,-0.58833004 0.34536,-1.06968004 0.76745,-1.06968004 0.42209,0 0.95787,-0.31163 1.19062,-0.69252 0.23275,-0.3809 1.19708,-1.0051 2.14297,-1.38714 0.94588,-0.382 1.71979,-1.03692 1.71979,-1.45534 0,-0.41843 0.22624,-0.62097 0.50276,-0.45005 0.27652,0.17089 1.28855,-0.56285 2.24896,-1.63055 2.96854,-3.3001697 3.14306,-3.4280697 4.21402,-3.0881597 0.67543,0.21436 1.34879,-0.0357 1.94394,-0.72192 0.7212,-0.83153 1.08212,-0.92353 1.73543,-0.4423 0.45368,0.33417 0.95319,0.96475 1.11003,1.40131 0.19683,0.5478197 0.40162,0.35708 0.66088,-0.61558 0.23662,-0.88762 0.85746,-1.5303 1.67709,-1.73598 1.67619,-0.42071 2.36257,0.0278 2.24255,1.46528 -0.20396,2.4426097 0.0513,3.0029497 1.36795,3.0029497 1.28127,0 1.28932,0.0287 0.57412,2.05578 -0.50069,1.41909 -0.55541,2.2257 -0.17671,2.6044 0.90657,0.90657 0.99936,10.03051 0.11102,10.91885 -0.85746,0.85746 -1.0136,2.9418003 -0.22037,2.9418003 0.90056,0 0.582,2.56368 -0.38587,3.10533 -0.86225,0.48255 -0.85926,0.5737 0.0519,1.58044 0.60565,0.66926 0.80226,1.32794 0.52625,1.76318 -0.24236,0.38214 -0.48128,1.29011 -0.53096,2.01772 -0.0497,0.7276 -0.38087,2.50359 -0.73592,3.94662 -0.49654,2.01801 -0.50061,2.67206 -0.0177,2.83303 0.4305,0.14351 0.33358,0.53443 -0.30838,1.24378 -0.62748,0.69339 -0.88794,1.70286 -0.78986,3.06136 0.0805,1.11477 -0.0897,2.94624 -0.37822,4.06998 -0.2885,1.12374 -0.68024,3.46951 -0.87056,5.21285 -0.19034,1.74336 -0.56139,3.42918 -0.82457,3.74634 -0.26321,0.31713 -0.63458,2.70076 -0.82526,5.29696 -0.19066,2.59617 -0.57203,5.00657 -0.84746,5.35641 -0.27546,0.34983 -0.34888,1.11474 -0.1632,1.69978 0.18571,0.58508 0.0623,1.57824 -0.27426,2.20708 -1.02101,1.90775 -1.18312,6.28108 -0.24615,6.64062 1.05445,0.40463 1.04204,3.33901 -0.0175,4.11369 -0.44921,0.32848 -0.88617,1.24809 -0.97097,2.04356 -0.0848,0.79547 -0.31258,1.60467 -0.50614,1.79824 -0.61389,0.61389 -0.37947,2.84401 0.32747,3.11528 0.97589,0.37449 1.06061,2.85578 0.10993,3.22059 -0.43412,0.16658 -0.78933,0.51237 -0.78933,0.76838 0,0.25601 -0.65484,1.40636 -1.45521,2.5563 -1.45235,2.08669 -1.46187,2.09065 -4.84277,2.0062 -2.75825,-0.0689 -3.43326,-0.25937 -3.6336,-1.02542 -0.13531,-0.51745 -0.65627,-0.94081 -1.15769,-0.94081 -0.50144,0 -1.14818,-0.53578 -1.43724,-1.19062 -0.65924,-1.49341 -0.91707,-7.03017 -0.3687,-7.91745 0.4613,-0.74641 0.47887,-0.85489 0.96698,-5.97318 0.19428,-2.03729 0.69543,-4.60195 1.11365,-5.69923 0.41823,-1.0973 0.76042,-2.89904 0.76042,-4.00386 0,-1.10482 0.22381,-3.30266 0.49733,-4.88407 0.27353,-1.58144 0.61542,-3.82799 0.75973,-4.99237 0.14433,-1.16438 0.37872,-2.47407 0.52086,-2.91042 0.14216,-0.43635 0.38801,-2.4625 0.54636,-4.50257 0.15833,-2.04007 0.5611,-4.493 0.89506,-5.45098 0.33396,-0.95797 0.46897,-1.87997 0.30004,-2.0489 -0.16894,-0.16894 -0.1056,-0.69258 0.14073,-1.16361 0.39637,-0.75803 1.06958,-6.45703 1.28881,-10.91065 0.043,-0.87312 0.39738,-1.9237 0.78751,-2.33463 0.40928,-0.43111 0.62211,-1.49434 0.50313,-2.51354 -0.11343,-0.97152 -0.0159,-1.76641 0.21669,-1.76641 0.2326,0 0.42291,-1.07156 0.42291,-2.38125 0,-1.3096903 -0.24651,-2.3812503 -0.54779,-2.3812503 -0.36595,0 -0.37653,-0.32001 -0.0319,-0.96398 0.63889,-1.19378 0.62691,-5.38602 -0.0153,-5.38602 -0.25866,0 -1.00449,0.63013 -1.65741,1.40028 -4.39494,5.18403 -9.60233,9.3374403 -10.04437,8.0113503 -0.1279,-0.38368 -0.34285,-0.27798 -0.55404,0.27244 -0.18981,0.49458 -0.11443,0.89926 0.16746,0.89926 0.9743,0 0.50794,1.44275 -0.77867,2.40895 -0.71017,0.5333 -1.19462,1.12597 -1.07654,1.31702 0.11806,0.19106 -0.52414,0.36835 -1.42711,0.39405 -2.01306,0.0572 -3.14277,0.97938 -1.82115,1.48653 0.84132,0.32284 0.83031,0.4354 -0.14404,1.47254 -0.58026,0.61767 -1.07516,1.30045 -1.09977,1.51733 -0.26321,2.3188 -0.81216,3.51993 -1.71683,3.75652 -0.58015,0.15172 -0.90789,0.51353 -0.72834,0.80405 0.17954,0.29053 0.0844,0.67778 -0.21135,0.86061 -0.29578,0.1828 -0.53779,0.0661 -0.53779,-0.25927 0,-0.32538 -0.24202,-0.44204 -0.53782,-0.25924 -0.29578,0.1828 -0.39434,0.56449 -0.21902,0.84815 0.17533,0.28369 0.031,0.86254 -0.32073,1.28635 -0.35174,0.42384 -0.43178,0.77782 -0.17786,0.78669 0.25392,0.009 0.0447,0.25892 -0.46487,0.55573 -1.42613,0.83063 -3.13005,4.74141 -3.10631,7.12957 0.0156,1.57884 -0.33073,2.52481 -1.31226,3.5833 -0.86812,0.93626 -1.22309,1.7862 -1.01706,2.43536 0.19741,0.62193 -0.27516,1.93011 -1.25576,3.47636 -0.86474,1.36356 -1.45277,2.79059 -1.30672,3.17119 0.14605,0.3806 0.0335,0.83539 -0.25001,1.01063 -0.28358,0.17526 -0.39108,0.79465 -0.23894,1.37644 0.18015,0.68892 0.0159,1.0578 -0.47078,1.0578 -0.54954,0 -0.93305,1.43598 -1.44864,5.42396 -0.38569,2.98318 -0.93634,5.87314 -1.22365,6.42215 -0.28731,0.54901 -0.6142,1.95157 -0.72644,3.11682 -0.11224,1.16525 -0.47284,2.44248 -0.80132,2.83827 -0.4132,0.49789 -0.42907,0.92347 -0.0515,1.3811 0.44965,0.54496 0.48029,2.21294 0.13477,7.33496 -0.0119,0.17793 -0.61711,0.20968 -1.34471,0.0706 -0.73123,-0.13978 -1.32292,-0.005 -1.32292,0.30231 0,1.15668 -5.21705,1.93633 -7.01146,1.04781 -0.63876,-0.31626 -0.92855,-0.24755 -0.93416,0.22156 -0.006,0.47792 -0.1568,0.44487 -0.50832,-0.11121 -0.5112,-0.80861 -0.29411,-11.89254 0.27985,-14.28998 0.1742,-0.72761 0.39947,-2.20909 0.50059,-3.29221 0.24704,-2.6461 1.27579,-7.83442 1.81293,-9.14321 0.40896,-0.9965 1.07106,-3.94081 2.26089,-10.05417 0.28321,-1.4552 0.96247,-3.59833 1.50947,-4.7625 0.61034,-1.29899 0.96623,-3.13872 0.92131,-4.7625 -0.11801,-4.26341 0.73511,-12.13916 1.35823,-12.53892 0.31557,-0.20245 0.41339,-0.52847 0.21741,-0.72445 -0.196,-0.196 -0.0277,-0.68506 0.37407,-1.0868 1.35827,-1.35827 1.77938,-11.7839103 0.49329,-12.2126103 -0.30422,-0.10139 -0.87466,0.4164 -1.26762,1.15067 -0.39296,0.7342703 -1.0537,1.3350403 -1.46833,1.3350403 -0.41463,0 -0.87842,0.47625 -1.03063,1.05833 -0.15224,0.58208 -0.54891,1.05833 -0.88151,1.05833 -0.33261,0 -0.90218,0.47625 -1.26569,1.05834 -0.36351,0.58208 -0.97317,1.05833 -1.35477,1.05833 -0.73089,0 -3.00136,2.34119 -3.00136,3.09483 0,0.24252 -0.9525,1.41261 -2.11666,2.60025 -1.39854,1.4267 -2.11667,2.63723 -2.11667,3.56787 0,0.88628 0.24349,1.32742 0.65672,1.18967 0.8472,-0.28241 2.15731,1.01793 1.72702,1.71416 -0.18124,0.29326 -0.80672,0.53321 -1.38991,0.53321 -0.69297,0 -1.02772,0.32086 -0.96616,0.92605 0.23064,2.26753 -0.0774,2.49928 -1.31333,0.98795 -1.24553,-1.52305 -1.24863,-1.52368 -1.85968,-0.38195 -0.33663,0.62902 -1.53808,1.51418 -2.66986,1.96702 -1.56141,0.62476 -2.14087,1.20165 -2.40223,2.39156 -0.18944,0.86249 -0.79925,1.85225 -1.35517,2.19941 -0.55592,0.34716 -1.01073,0.89916 -1.01073,1.22663 0,0.77764 -5.55678,6.55833 -6.30431,6.55833 -0.31618,0 -0.57486,0.23813 -0.57486,0.52917 0,0.29104 0.47625,0.52917 1.05833,0.52917 1.33316,0 1.34655,0.57637 0.0394,1.69561 -0.66265,0.56737 -0.91577,1.26706 -0.72387,2.00093 0.22077,0.84421 0.0109,1.20283 -0.83312,1.42354 -0.78663,0.20572 -1.13178,0.71692 -1.13999,1.68852 -0.006,0.76642 -0.47744,1.98879 -1.04655,2.7164 -0.56915,0.7276 -1.04011,1.58369 -1.04659,1.90238 -0.0185,0.91207 -2.12841,2.66292 -2.12841,1.76622 0,-0.48831 -0.38188,-0.34692 -1.15727,0.42847 -1.06629,1.0663 -1.09098,1.2315 -0.31403,2.10198 0.72268,0.80968 0.73684,1.04222 0.0989,1.62703 -0.40936,0.37529 -0.74427,1.26826 -0.74427,1.98438 0,1.04039 -0.26921,1.30204 -1.33953,1.30204 -1.37877,0 -2.40221,1.4251 -1.46347,2.03779 0.635,0.41447 0.69096,2.19554 0.0689,2.19554 -0.24251,0 -0.44095,0.56986 -0.44095,1.26632 0,0.69647 -0.35719,1.40335 -0.79375,1.57089 -0.43656,0.16753 -0.79375,0.61214 -0.79375,0.98806 0,0.37592 -0.55409,1.281 -1.23129,2.01133 -0.67718,0.73033 -1.1352,1.61608 -1.01778,1.96832 0.1174,0.35224 -0.50339,1.65724 -1.37956,2.90004 -0.87617,1.2428 -1.85338,3.2616 -2.17159,4.48625 -0.31822,1.22465 -0.8141,2.37218 -1.10197,2.55011 -0.28789,0.1779 -0.39057,0.53843 -0.2282,0.80113 0.16235,0.26273 -0.0727,1.03918 -0.52239,1.72548 -0.44969,0.6863 -0.65802,1.4074 -0.46297,1.60245 0.19505,0.19505 0.0371,0.35462 -0.35092,0.35462 -0.38806,0 -0.56626,0.13933 -0.396,0.30959 0.54197,0.54195 -0.78946,3.61532 -2.10209,4.85235 -1.00618,0.94822 -1.47725,1.08019 -2.29444,0.64283 -0.56557,-0.30268 -1.0283,-0.78007 -1.0283,-1.06087 0,-0.2808 -0.35719,-0.51057 -0.79375,-0.51057 -0.43656,0 -0.79375,0.20336 -0.79375,0.45191 0,0.82302 -2.58011,3.25226 -3.45422,3.25226 -0.65114,0 -0.81772,-0.41598 -0.68871,-1.71979 z m 25.093,-37.30234 c -0.36698,-0.36697 -1.37091,0.37865 -1.37091,1.01817 0,0.35089 0.30361,0.31073 0.80653,-0.10665 0.4436,-0.36814 0.69757,-0.77832 0.56438,-0.91152 z m 63.18742,-56.2278603 c 0,-0.29105 -0.25217,-0.52917 -0.56041,-0.52917 -0.30822,0 -0.41323,0.23812 -0.23334,0.52917 0.17987,0.29104 0.43204,0.52916 0.56039,0.52916 0.12835,0 0.23336,-0.23812 0.23336,-0.52916 z"/>
    <path style="stroke-width:0.52916664" d="m -73.853994,104.43984 c -0.87313,-0.59558 -2.3689,-1.08445 -3.32391,-1.08638 -1.01992,-0.003 -1.85695,-0.31766 -2.02859,-0.76488 -0.16068,-0.41879 -0.98457,-0.9135 -1.83078,-1.09937 -1.7552,-0.3855 -4.83344,-2.915499 -6.50132,-5.343419 -0.62264,-0.90639 -1.36498,-1.73982 -1.64962,-1.85209 -0.28467,-0.11229 -0.56701,-0.54107 -0.62746,-0.95287 -0.0604,-0.41179 -0.80074,-1.36429 -1.6451,-2.11666 -1.54469,-1.37637 -4.88281,-7.3061 -4.88281,-8.67363 0,-0.40396 -0.47625,-1.28357 -1.05833,-1.95474 -0.58208,-0.67114 -1.05982,-1.83867 -1.06159,-2.5945 -0.003,-0.75584 -0.367,-2.07172 -0.81156,-2.9242 -0.44452,-0.85249 -0.871426,-1.92405 -0.948626,-2.38125 -0.0772,-0.4572 -0.42641,-1.35142 -0.77597,-1.98713 -0.75454,-1.37216 -0.83632,-3.68472 -0.14542,-4.11173 0.28948,-0.17889 0.30459,-0.95007 0.0369,-1.88331 -0.24927,-0.86921 -0.34243,-1.58038 -0.20696,-1.58038 0.13544,0 0.0109,-0.43976 -0.27678,-0.97726 -0.36303,-0.67834 -0.32959,-1.17065 0.10927,-1.60952 0.46969,-0.46971 0.47702,-0.72866 0.0285,-1.00711 -0.75547,-0.46902 -0.85775,-9.63528 -0.1075,-9.63528 0.28488,0 0.36436,-0.24855 0.17661,-0.55234 -0.18775,-0.30379 -0.0546,-0.89784 0.2958,-1.32009 0.35047,-0.42227 0.50144,-1.28682 0.33555,-1.92124 -0.34073,-1.30292 0.57044,-6.26081 1.291556,-7.02778 0.25998,-0.27649 0.47268,-0.93134 0.47268,-1.45521 0,-0.52388 0.41672,-1.3893 0.92604,-1.92321 1.41663,-1.48497 2.24814,-3.12314 2.25676,-4.44605 0.004,-0.65882 0.34354,-1.79314 0.75391,-2.52074 1.3852,-2.45602 2.94246,-5.95114 2.94246,-6.60408 0,-1.07061 9.78691,-10.19902 11.98379,-11.17748 1.12152,-0.49951 2.15818,-0.93813 2.30371,-0.9747503 0.88394,-0.22246 2.97598,-1.61756 3.33359,-2.223 0.23272,-0.3941 0.87352,-0.71652 1.42396,-0.71652 0.55044,0 1.15038,-0.24199 1.33318,-0.53779 0.18283,-0.29578 0.52168,-0.42082 0.75303,-0.27784 0.71623,0.44267 4.86323,-1.82552 4.47784,-2.44914 -0.21075,-0.34097 -0.0559,-0.47279 0.37869,-0.32248 0.40431,0.13983 1.22727,-0.12694 1.82883,-0.5928 0.79309,-0.61423 2.2084,-0.83997 5.14927,-0.82134 3.92671,0.0249 4.10633,0.0825 5.65316,1.81509 0.87869,0.98417 1.59761,1.53617 1.59761,1.22664 0,-0.91398 2.77773,-1.17444 4.56425,-0.42797 0.90977,0.38013 2.10045,1.33451 2.64597,2.12085 0.54551,0.78634 1.77564,2.33892 2.73359,3.4501903 0.95795,1.11128 1.87201,2.57604 2.03126,3.25501 0.15925,0.67898 0.41947,1.82981 0.57825,2.55741 0.15877,0.72761 0.53438,1.63306 0.83465,2.01211 0.3003,0.37906 0.68593,1.56969 0.85701,2.64583 0.24824,1.56159 0.65789,2.10949 2.02885,2.71361 2.15358,0.94896 2.15411,1.27662 0.003,1.91172 -1.33551,0.39434 -1.73752,0.82016 -1.81761,1.92535 -0.0565,0.78047 0.2118,1.68013 0.59629,1.99925 0.43006,0.35689 0.60659,1.26669 0.45871,2.36397 -0.13221,0.98105 0.007,1.93667 0.30941,2.12354 0.30239,0.18688 0.70643,1.52062 0.89789,2.96387 0.19145,1.44325 0.61507,2.62773 0.94138,2.6322 0.41527,0.006 0.42291,0.12475 0.0254,0.39688 -0.87418,0.59857 -1.4411,2.33944 -1.33292,4.09292 0.0539,0.87312 0.17894,2.77812 0.2779,4.23333 0.24344,3.57947 -0.52986,8.78954 -1.38507,9.33185 -0.54115,0.34314 -0.5089,0.44334 0.14467,0.44964 1.11911,0.0108 0.96949,1.94992 -0.51101,6.62268 -0.68041,2.14749 -2.43486,6.22527 -3.30124,7.67291 -1.1022,1.84166 -1.13098,2.29783 -0.18856,2.98696 0.89148,0.65186 0.89781,0.71721 0.0694,0.71721 -0.50133,0 -1.06466,0.41672 -1.25185,0.92604 -0.18722,0.50933 -0.65932,1.11834 -1.04913,1.35335 -0.57935,0.3493 -0.55705,0.57898 0.12216,1.25817 0.75507,0.75507 0.68414,0.93337 -0.77724,1.95397 -0.88445,0.61767 -1.61221,1.38428 -1.61724,1.70355 -0.005,0.31927 -0.48045,1.12392 -1.0565,1.78811 -0.57606,0.66418 -0.92935,1.39853 -0.78513,1.63189 0.14423,0.23337 0.0201,0.57389 -0.27556,0.75669 -0.29578,0.1828 -0.53779,0.8093 -0.53779,1.39223 0,1.48582 -2.6056,6.83295 -3.49613,7.17468 -0.40558,0.1556 -0.73731,0.6146 -0.73731,1.02002 0,0.40543 -0.35772,0.73713 -0.79492,0.73713 -0.4372,0 -1.6234,0.87837 -2.63599,1.95191 -1.01261,1.073549 -2.26192,2.013669 -2.7763,2.089149 -0.51435,0.0755 -1.29267,0.56637 -1.72961,1.09083 -0.58525,0.70244 -1.61139,0.97073 -3.89681,1.01883 -1.82639,0.0384 -3.26855,0.3342 -3.50641,0.71908 -0.22225,0.3596 -1.44555,0.75954 -2.71849,0.88879 -1.739,0.17659 -2.70907,-0.0342 -3.90189,-0.84788 z m 10.12068,-8.262459 c 2.20398,-0.25099 5.48973,-2.70185 5.48973,-4.09483 0,-0.28717 0.381,-0.80073 0.84667,-1.14125 0.51131,-0.37388 0.84667,-1.39255 0.84667,-2.57188 0,-2.18565 0.23812,-2.37292 1.30545,-1.02674 0.57081,0.71995 0.70911,0.74938 0.62135,0.13229 -0.25361,-1.7838 0.82343,-5.64674 1.94789,-6.98627 0.66024,-0.7865 1.50846,-2.63197 1.88499,-4.10104 0.37651,-1.46905 0.87765,-2.67103 1.11369,-2.67103 0.23601,0 0.42913,-0.35718 0.42913,-0.79375 0,-0.43656 0.2178,-0.79375 0.484,-0.79375 0.44056,0 1.47529,-7.57623 1.18345,-8.66518 -0.0683,-0.25471 0.2799,-0.90956 0.77372,-1.45521 0.64596,-0.71376 0.70337,-0.99211 0.20466,-0.99211 -0.49858,0 -0.44096,-0.27871 0.20518,-0.99269 0.49411,-0.54599 1.03841,-1.85568 1.2096,-2.91041 0.17116,-1.05474 0.52096,-1.91773 0.77737,-1.91773 0.25641,0 0.31388,-0.9525 0.12772,-2.11667 -0.23189,-1.4501 -0.14468,-2.11666 0.27693,-2.11666 0.44633,0 0.46358,-0.28372 0.0628,-1.03259 -0.39097,-0.7306 -0.36753,-1.72469 0.0802,-3.39868 0.53514,-2.00089 0.49778,-2.67867 -0.24207,-4.39137 -0.8527,-1.97382 -1.13125,-3.6844 -1.75101,-10.75272 -0.16569,-1.88971 -0.51009,-3.68744 -0.76536,-3.99502 -0.25525,-0.30755 -0.61939,-1.61896 -0.80921,-2.9142 -0.494,-3.37105 -1.88751,-6.20392 -3.22254,-6.55116 -0.77063,-0.20042 -1.40645,-1.07849 -1.96236,-2.71002 -0.85051,-2.49608 -2.28442,-4.09014 -4.57057,-5.08103 -2.13474,-0.9252503 -4.61624,-0.9974603 -5.31572,-0.1546503 -0.34909,0.4206303 -1.21693,0.7647803 -1.9285,0.7647803 -1.0955,0 -1.23864,0.18248 -0.93406,1.19062 0.19783,0.65484 0.57108,1.41684 0.82942,1.69333 1.21031,1.29543 -0.58515,4.73957 -1.82465,3.50007 -0.30974,-0.30975 -0.97205,-0.56319 -1.47179,-0.56319 -1.25333,0 -5.91122,-2.04306 -6.40972,-2.81146 -0.50461,-0.77783 -1.57967,0.61761 -1.22441,1.5893 0.13181,0.36044 -0.60619,0.88693 -1.72535,1.23081 -1.07561,0.33049 -2.28986,0.70845 -2.69833,0.83987 -0.58176,0.18716 -0.52443,0.41497 0.26459,1.05137 0.66145,0.53354 0.73477,0.73475 0.21352,0.58611 -1.06498,-0.30364 -2.64584,0.5547 -2.64584,1.43658 0,0.39068 -0.35457,1.0046 -0.78793,1.36427 -0.43336,0.35964 -0.65743,0.86505 -0.49794,1.1231 0.15949,0.25807 -0.0241,0.46921 -0.4077,0.46921 -0.87056,0 -2.1567,1.98136 -1.73209,2.66835 0.17287,0.27974 -0.29531,0.74044 -1.04043,1.02373 -0.87074,0.33104 -1.37588,0.94511 -1.4139,1.71878 -0.16087,3.27369 -0.55642,4.85082 -1.52559,6.08293 -0.73387,0.93298 -1.06108,2.14797 -1.06108,3.94002 0,1.83716 -0.23548,2.68144 -0.80931,2.90163 -0.69956,0.26845 -0.68162,0.40743 0.13229,1.02492 0.8677,0.65828 0.8708,0.71564 0.0395,0.73115 -1.56081,0.0291 -2.09987,7.07204 -0.55314,7.22672 0.3638,0.0364 0.91363,0.0959 1.22185,0.13229 0.30821,0.0364 0.42227,0.28964 0.25347,0.5628 -0.16883,0.27315 -0.7782,0.40589 -1.35417,0.29495 -0.89802,-0.17293 -1.04719,0.0904 -1.04719,1.84897 0,1.6107 0.23558,2.12539 1.0982,2.39918 1.09527,0.34761 0.95499,1.03423 -0.21627,1.05844 -0.33954,0.007 -0.54803,0.48326 -0.46331,1.05834 0.0847,0.57507 0.23657,2.32465 0.3374,3.888 0.10086,1.56334 0.41256,2.99209 0.69268,3.175 0.28014,0.1829 0.64389,1.36308 0.80838,2.6226 0.16449,1.25949 0.64675,2.68824 1.07167,3.175 0.42495,0.48673 0.70477,1.29863 0.62185,1.80419 -0.0829,0.50559 0.49956,1.46651 1.29445,2.13535 0.79491,0.66887 1.34879,1.5055 1.23089,1.85923 -0.25495,0.76488 1.01703,3.81743 1.59073,3.81743 0.22,0 0.4,0.32031 0.4,0.71176 0,0.39145 0.47016,1.13723 1.04481,1.65727 0.57465,0.52006 1.2043,1.44994 1.39919,2.06639 0.49208,1.55641 8.09202,8.79375 9.23436,8.79375 0.5134,0 1.0128,0.21148 1.10982,0.46995 0.32681,0.87074 4.40029,2.57948 5.46807,2.29375 0.58208,-0.15576 1.5645,-0.34083 2.18318,-0.41129 z"/>
    <path style="stroke-width:0.52916664" d="m 94.965306,99.912321 c -1.15586,-0.66093 -2.41488,-1.08146 -2.79784,-0.93451 -0.899,0.34496 -2.77355,-1.34824 -2.77355,-2.50526 0,-0.58391 0.73721,-1.11342 2.13193,-1.53131 1.17259,-0.35128 1.98549,-0.87571 1.80647,-1.16535 -0.41645,-0.67384 1.17057,-3.1246 2.02692,-3.13005 0.35709,-0.003 0.92451,-0.59756 1.26093,-1.32292 0.33642,-0.72533 0.39595,-1.31879 0.13229,-1.31879 -0.26366,0 -0.47937,-0.25217 -0.47937,-0.56038 0,-0.30822 0.23812,-0.41323 0.52917,-0.23337 0.4496,0.2779 0.71456,-0.27831 0.63357,-1.32995 -0.0114,-0.14941 0.55559,-0.54372 1.26026,-0.87627 0.75811,-0.35777 1.28117,-0.39614 1.28117,-0.094 0,0.28085 0.249684,0.35631 0.554854,0.16769 0.37592,-0.23233 0.34423,-0.59671 -0.0983,-1.12987 -0.38913,-0.4689 -0.453004,-0.9311 -0.15799,-1.14353 0.63342,-0.45612 1.762,-2.21777 2.14734,-3.35188 0.1642,-0.48329 1.34792,-1.43536 2.63046,-2.11576 1.28256,-0.68041 2.33193,-1.41608 2.33193,-1.63486 0,-0.21879 0.35719,-0.39781 0.79375,-0.39781 0.44225,0 0.79375,-0.47093 0.79375,-1.06349 0,-0.58494 0.47625,-1.47129 1.05833,-1.96969 0.58209,-0.49839 1.05834,-1.19861 1.05834,-1.55604 0,-0.3574 0.41671,-0.89257 0.92604,-1.18922 0.50932,-0.29665 0.75229,-0.54661 0.53991,-0.55544 -0.21236,-0.009 0.0577,-0.79002 0.60007,-1.73591 0.5424,-0.94588 1.31146,-1.64041 1.70902,-1.54339 0.39759,0.097 0.55264,0.006 0.3446,-0.20188 -0.76499,-0.76499 0.59385,-2.26949 1.77162,-1.96151 1.20909,0.3162 1.19695,0.46304 0.28035,-3.39053 -0.17224,-0.72417 0.10192,-1.48273 0.74687,-2.0664 1.07569,-0.97348 1.43364,-2.66438 0.43315,-2.04602 -1.05463,0.6518 0.0962,-2.09378 1.26521,-3.0185 1.07169,-0.84775 1.59697,-2.86584 1.00769,-3.87178 -0.16277,-0.27789 -0.37483,-1.22589 -0.47125,-2.10672 -0.26657,-2.43485 -1.26108,-3.05099 -5.40308,-3.34735 -2.23861,-0.16018 -3.75349,-0.50628 -3.75833,-0.85868 -0.005,-0.32469 -0.23892,-0.23317 -0.52104,0.20339 -0.34198,0.52916 -0.51567,0.57327 -0.52107,0.13229 -0.0114,-0.92125 -1.09334,-0.82693 -1.81361,0.15809 -0.36061,0.49315 -1.80637,0.94414 -3.63022,1.13236 -1.66701,0.17206 -3.03093,0.47263 -3.03093,0.66792 0,0.19531 -1.22024,0.66783 -2.711594,1.05007 -1.49137,0.38222 -3.21778,1.15266 -3.83646,1.7121 -0.6187,0.55943 -1.48402,1.34429 -1.92296,1.74413 -0.43894,0.39984 -1.45725,0.89241 -2.2629,1.09463 -0.80569,0.20222 -1.70508,0.81651 -1.99867,1.36512 -0.2936,0.54862 -0.85349,0.99745 -1.24417,0.99745 -0.39069,0 -1.00677,0.35719 -1.36909,0.79375 -0.36232,0.43657 -1.00216,0.79375 -1.42187,0.79375 -0.41973,0 -1.36263,0.71247 -2.09537,1.58327 -0.73271,0.8708 -2.02702,1.99372 -2.87623,2.49534 -0.84923,0.50165 -1.54403,1.21793 -1.54403,1.59176 0,0.3738 -0.23381,0.67963 -0.51953,0.67963 -1.0359,0 -4.24654,3.60837 -3.93438,4.42177 0.23159,0.60354 -0.19932,0.89734 -1.71958,1.17245 -2.68312,0.48554 -3.87491,1.80859 -3.87559,4.30252 -0.003,5.46473 -0.6789,7.03369 -2.59411,6.00869 -0.80764,-0.43225 -1.11514,-1.10699 -1.11514,-2.44689 0,-1.28408 -0.28332,-1.95054 -0.92604,-2.17848 -1.58634,-0.56258 -2.67349,-1.77659 -2.42779,-2.71115 0.12954,-0.49279 1.29434,-1.36607 2.58842,-1.94062 1.2941,-0.57454 2.35291,-1.22938 2.35291,-1.45521 0,-0.22582 0.26789,-0.35104 0.59531,-0.27828 0.32742,0.0728 0.70445,-0.16537 0.83783,-0.52917 0.1334,-0.3638 -0.0154,-0.66146 -0.33073,-0.66146 -0.31528,0 -0.57324,-0.25514 -0.57324,-0.56695 0,-0.84254 1.24309,-1.9291 1.9409,-1.69648 0.8463,0.2821 1.47185,-2.89788 0.74287,-3.77627 -0.67654,-0.81518 0.27498,-6.32722 1.01346,-5.87081 0.23815,0.14719 0.68323,-0.45019 0.98904,-1.32749 0.30583,-0.87731 0.74575,-1.53469 0.97761,-1.46087 0.50686,0.16137 3.78873,-3.07555 4.96803,-4.90003 0.46328,-0.71676 0.99904,-1.9399 1.19059,-2.71812 0.19156,-0.77822 1.07067,-1.96885 1.95358,-2.64583 3.94901,-3.02792 6.86142,-6.44613 6.86142,-8.05302 0,-0.42569 0.59531,-1.24225 1.32291,-1.81457 0.72761,-0.57234 1.32292,-1.46275 1.32292,-1.97868 0,-0.51597 0.15668,-0.7814 0.34819,-0.58992 0.59026,0.59029 1.76848,-0.76356 1.76848,-2.03205 0,-0.66082 0.3629,-1.34078 0.80645,-1.51098 0.44354,-0.17021 0.99988,-0.8323 1.23626,-1.47133 0.47847,-1.29338 2.71979,-1.78291 2.71979,-0.59401 0,0.4051 0.23812,0.58938 0.52916,0.40949 0.29843,-0.18443 0.56999,0.3211 0.6228,1.15941 0.36762,5.83512 0.35656,5.91436 -0.94347,6.76619 -0.69676,0.45654 -1.26683,1.27534 -1.26683,1.81959 0,0.54422 -0.35719,1.12657 -0.79375,1.2941 -0.43656,0.16754 -0.79375,0.77425 -0.79375,1.34829 0,0.57404 -0.25437,1.20092 -0.56525,1.39306 -0.31089,0.19214 -0.43741,0.68244 -0.28118,1.08956 0.16389,0.42711 -0.0447,0.74022 -0.4931,0.74022 -1.19338,0 -0.92295,0.82203 0.48085,1.46164 0.90533,0.41251 1.41997,0.41124 1.83568,-0.005 0.31771,-0.31771 1.92048,-0.62455 3.56169,-0.68186 1.641214,-0.0573 3.158704,-0.38682 3.372194,-0.73226 0.2135,-0.34544 0.6045,-0.58729 0.86887,-0.53747 1.0073,0.18986 1.75622,-0.063 2.55617,-0.86291 1.1911,-1.19108 3.48075,-1.52334 3.48075,-0.50507 0,0.88644 0.86661,1.10572 1.14652,0.29012 0.10652,-0.31044 1.01467,-0.22082 2.29306,0.22624 1.75639,0.61426 2.23917,0.62103 2.83641,0.0399 0.59786,-0.58171 0.88485,-0.55899 1.69442,0.1342 0.53607,0.45899 1.51154,0.91646 2.16771,1.0166 0.65616,0.10015 1.34903,0.43453 1.53974,0.74309 0.19069,0.30853 0.49869,0.54065 0.68442,0.5158 1.14927,-0.15383 1.47363,0.0477 1.20468,0.74853 -0.16751,0.43657 -0.0739,0.79375 0.20796,0.79375 0.28191,0 1.4668,0.95425 2.63308,2.12053 1.93495,1.93495 2.13567,2.39808 2.29346,5.29207 0.0951,1.74434 0.31631,3.31491 0.49152,3.49014 0.17523,0.17521 0.0971,0.90123 -0.17365,1.61335 -0.27074,0.71213 -0.46299,2.56572 -0.42717,4.11909 0.0358,1.55334 -0.13824,3.14888 -0.38679,3.5456 -0.24852,0.39672 -0.38333,1.13803 -0.29954,1.64735 0.0838,0.50932 -0.0633,0.92604 -0.32689,0.92604 -0.51639,0 -2.46081,3.67909 -3.06057,5.79094 -0.42378,1.49227 -3.44365,5.91544 -5.62025,8.23192 -0.82045,0.87316 -1.39083,1.85619 -1.26754,2.18451 0.1233,0.32832 -0.65019,1.54652 -1.71884,2.70711 -2.71711,2.95087 -4.32424,4.86402 -4.32424,5.1476 0,0.13282 -1.55747,1.85743 -3.46104,3.83244 -2.64221,2.74137 -3.42898,3.90678 -3.32552,4.92612 0.0745,0.73437 -0.27303,1.91846 -0.77232,2.63128 -0.4993,0.71284 -0.90779,0.96853 -0.90779,0.56819 0,-0.49379 -0.29781,-0.38917 -0.92604,0.32533 -1.458094,1.658279 -3.777324,1.820419 -6.202574,0.43358 z m -27.79639,-29.37069 c 0,-0.29104 -0.10501,-0.52916 -0.23336,-0.52916 -0.12835,0 -0.38052,0.23812 -0.56039,0.52916 -0.17989,0.29105 -0.0749,0.52917 0.23334,0.52917 0.30824,0 0.56041,-0.23812 0.56041,-0.52917 z"/>
    <path style="stroke-width:0.52916664" d="m 173.15669,106.83053 c -0.4033,-0.71027 -3.49596,-1.25155 -8.6211,-1.50891 -1.30969,-0.0657 -2.88573,-0.40884 -3.50232,-0.7624 -0.61656,-0.35356 -1.2714,-0.49247 -1.45521,-0.30869 -0.18378,0.18381 -0.33414,0.0564 -0.33414,-0.28318 0,-0.33957 -0.19082,-0.55785 -0.42402,-0.48509 -0.23323,0.0728 -2.15633,-1.59412 -4.27355,-3.704169 -2.11725,-2.11005 -4.17899,-3.83646 -4.58166,-3.83646 -1.0306,0 -3.08184,-2.34275 -4.45029,-5.08283 -0.63876,-1.27902 -1.38282,-2.3255 -1.65343,-2.3255 -0.27064,0 -0.49205,-0.47625 -0.49205,-1.05833 0,-0.58209 0.25797,-1.05834 0.57325,-1.05834 0.3153,0 0.46543,-0.29765 0.33364,-0.66145 -0.13179,-0.36381 0.13263,-1.08839 0.58764,-1.61021 0.75956,-0.87108 0.73665,-0.97247 -0.27983,-1.23827 -1.1562,-0.30237 -1.32535,-1.83304 -0.24243,-2.19401 0.88283,-0.29427 0.76549,-0.81436 -0.48708,-2.15884 -0.74646,-0.80124 -0.93921,-1.38864 -0.59708,-1.81959 0.27786,-0.34999 0.47601,-1.4405 0.44027,-2.42332 -0.0362,-0.99618 0.22801,-1.89936 0.59708,-2.04097 0.82077,-0.31496 0.86323,-1.84465 0.0731,-2.63472 -0.70297,-0.70297 -0.11022,-1.90693 0.69411,-1.40983 0.3234,0.19986 0.45514,0.0353 0.31086,-0.38825 -0.13774,-0.40431 0.14031,-1.09231 0.61785,-1.52887 0.47755,-0.43656 0.92409,-1.62719 0.99232,-2.64583 0.0682,-1.01865 0.3546,-1.93146 0.63641,-2.02846 0.28178,-0.097 0.51236,-0.52517 0.51236,-0.95144 0,-0.42627 0.65485,-1.35138 1.45521,-2.05584 1.0704,-0.9421 1.22904,-1.28524 0.59992,-1.29754 -0.78206,-0.0153 -0.78592,-0.26593 -0.0452,-2.92714 0.72578,-2.60752 1.69426,-3.91599 1.69426,-2.28899 0,0.34176 0.55113,0.10364 1.22473,-0.52917 0.6736,-0.63283 1.50704,-1.15059 1.85208,-1.15059 0.34504,0 0.62736,-0.54237 0.62736,-1.20531 0,-1.2741 1.85573,-3.25173 2.61244,-2.78405 0.5915,0.36555 2.30134,-3.2752 1.86772,-3.97685 -0.38291,-0.61954 2.16709,-4.20462 2.99064,-4.20462 0.29575,0 1.32379,-0.83344 2.28449,-1.85209 0.9607,-1.01864 1.95966,-1.85208 2.21988,-1.85208 0.26022,0 2.06954,-1.51233 4.02074,-3.36074 1.9512,-1.8484 3.65591,-3.09856 3.78822,-2.77812 0.14642,0.35451 0.25699,0.31141 0.28242,-0.11007 0.023,-0.38097 0.2799,-0.54552 0.57095,-0.36565 0.29104,0.17989 0.52916,-0.0697 0.52916,-0.55454 0,-0.55769 0.28541,-0.77208 0.77679,-0.58351 0.42725,0.16396 0.91755,0.0703 1.08958,-0.20797 0.46554,-0.75327 2.35958,-0.61179 2.67092,0.1995 0.14891,0.38806 0.60722,0.70556 1.01846,0.70556 0.41121,0 0.64074,-0.17303 0.51004,-0.38454 -0.13071,-0.21148 0.41555,-0.5619 1.2139,-0.77867 2.88698,-0.78399 3.82609,-0.72004 4.37071,0.29758 0.31205,0.58308 0.86532,0.87645 1.32225,0.70111 0.43212,-0.16581 0.78569,-0.0379 0.78569,0.2843 0,0.32216 -0.29766,0.58941 -0.66146,0.59388 -0.48673,0.006 -0.47181,0.12827 0.0565,0.46302 0.48371,0.3065 0.53239,0.5696 0.14919,0.80643 -0.31284,0.19333 -0.53652,1.2092 -0.49712,2.25745 0.078,2.0747 -1.05299,3.34264 -2.98471,3.34613 -0.59921,0 -1.8237,0.44971 -2.72108,0.99693 -0.89737,0.54721 -2.38588,1.16059 -3.30777,1.36308 -1.17192,0.25741 -1.77292,0.75348 -1.99766,1.64893 -0.17679,0.7044 -0.65283,1.28074 -1.05783,1.28074 -0.40502,0 -0.73639,0.47625 -0.73639,1.05834 0,1.70296 -0.0778,1.82163 -1.61853,2.46946 -0.80757,0.33957 -1.9644,1.11347 -2.57072,1.71979 -0.60635,0.60635 -1.30305,1.10241 -1.54826,1.10241 -0.24522,0 -0.89467,0.83344 -1.44325,1.85209 -0.54859,1.01864 -1.18139,1.85208 -1.40624,1.85208 -0.22487,0 -0.40883,0.47625 -0.40883,1.05833 0,0.58209 -0.23067,1.05834 -0.51258,1.05834 -0.28189,0 -0.36301,0.38968 -0.18026,0.86595 0.21836,0.56902 0.098,0.78785 -0.351,0.6382 -0.94419,-0.31474 -3.71866,2.22089 -3.71866,3.39852 0,0.98044 -0.59285,1.89101 -2.24896,3.45427 -0.50932,0.48075 -0.92604,1.31149 -0.92604,1.84608 0,0.53456 -0.23813,0.82478 -0.52917,0.64489 -0.29104,-0.17986 -0.52916,0.17164 -0.52916,0.78116 0,0.60949 -0.33383,1.63557 -0.74182,2.28018 -0.40798,0.6446 -0.91416,2.00543 -1.12482,3.02408 -0.21064,1.01865 -0.62653,2.00705 -0.92419,2.19641 -0.4726,0.3007 -0.79888,3.15667 -0.98846,8.65151 -0.0301,0.87312 0.10044,2.18281 0.29015,2.91041 0.18973,0.72761 0.36586,2.20113 0.39147,3.27446 0.0262,1.10249 0.35388,2.06947 0.75303,2.22263 0.38857,0.14912 0.61669,0.7374 0.50695,1.30728 -0.12169,0.63188 0.39864,1.6229 1.33352,2.53987 0.8432,0.82704 1.53972,1.77358 1.54779,2.10344 0.008,0.32985 0.43143,0.7525 0.94075,0.93919 0.50932,0.18672 1.61586,0.72051 2.45901,1.18621 0.84312,0.46569 2.08894,0.84672 2.76847,0.84672 0.67953,0 1.14366,0.14882 1.03142,0.33072 -0.27088,0.43903 12.70641,0.24803 14.91425,-0.21949 0.94943,-0.20103 1.85645,-0.57621 2.01559,-0.83371 0.15913,-0.25746 0.75412,-0.46815 1.32221,-0.46815 0.56808,0 2.04232,-0.45704 3.27607,-1.01563 1.23375,-0.55861 2.8385,-1.18517 3.56611,-1.39234 0.7276,-0.2072 1.95498,-0.82172 2.72751,-1.36562 0.77253,-0.54388 1.78456,-0.98891 2.24895,-0.98891 0.4644,0 0.81616,-0.17859 0.78169,-0.39687 -0.17732,-1.12305 0.14372,-1.65548 0.83764,-1.3892 0.42622,0.16357 1.43825,-0.17148 2.24896,-0.74454 0.81068,-0.57308 2.18837,-1.19692 3.0615,-1.38631 0.87312,-0.18941 2.82498,-1.46918 4.33747,-2.84392 7.36042,-6.69021 7.90466,-6.98786 8.19827,-4.48395 0.18047,1.53905 -1.04616,5.42396 -1.71257,5.42396 -0.21635,0 -0.95411,0.59121 -1.63951,1.31379 -0.68541,0.72257 -1.53554,1.31789 -1.88918,1.32291 -0.35367,0.005 -1.66336,1.06241 -2.91042,2.34974 -1.24709,1.28733 -2.73346,2.41842 -3.30306,2.51354 -0.56962,0.0951 -1.47127,0.59836 -2.00369,1.11829 -0.53239,0.51993 -1.19745,0.80354 -1.47788,0.63024 -0.2804,-0.17333 -0.50985,0.0561 -0.50985,0.50985 0,0.45373 -0.21233,0.82497 -0.47181,0.82497 -0.2595,0 -0.62828,0.62341 -0.81949,1.38536 -0.19124,0.76195 -0.49541,1.23769 -0.6759,1.05719 -0.1805,-0.18049 -0.7047,0.007 -1.16486,0.41749 -0.46019,0.41013 -1.82565,1.008939 -3.0344,1.330669 -1.81406,0.48286 -2.14969,0.76859 -1.92265,1.63674 0.24657,0.94284 0.008,1.05206 -2.30023,1.055 -1.4164,0.003 -3.26692,0.36396 -4.11229,0.80481 -0.84534,0.44085 -2.27409,0.78221 -3.175,0.75856 -1.9109,-0.0502 -7.74631,1.35604 -8.20383,1.97694 -0.54266,0.73641 -1.57538,0.70405 -2.01094,-0.063 z"/>
    <path style="stroke-width:0.52916664" d="m 246.2682,107.77385 c -0.4626,-0.73337 -0.7162,-0.76237 -1.6372,-0.18716 -0.6047,0.37766 -1.6708,0.5348 -2.3951,0.35303 -1.6632,-0.41746 -3.617,-2.09984 -3.617,-3.11459 0,-0.43008 -0.4512,-1.19031 -1.0027,-1.6894 -1.0088,-0.91299 -1.7431,-3.213519 -1.1993,-3.757369 0.3799,-0.37989 0.5873,-1.55445 0.8021,-4.54271 0.1992,-2.77297 0.609,-3.65652 1.6957,-3.65652 0.9939,0 0.965,-1.45137 -0.068,-3.43344 -0.7962,-1.52683 -0.7948,-2.32429 0.016,-9.79572 0.047,-0.43657 0.3692,-1.31387 0.7152,-1.94958 0.3459,-0.63572 0.6289,-1.60013 0.6289,-2.14313 0,-0.543 0.2525,-1.23978 0.5612,-1.54842 0.3086,-0.30861 0.6537,-1.69722 0.7668,-3.08581 0.1277,-1.56699 0.6051,-2.94995 1.2587,-3.64575 1.0517,-1.11971 2.3107,-5.30767 1.7609,-5.85747 -0.1598,-0.15987 -0.013,-0.29068 0.3267,-0.29068 0.3396,0 0.6174,-0.47625 0.6174,-1.05833 0,-0.58208 0.2381,-1.05833 0.5292,-1.05833 0.291,0 0.5291,-0.68522 0.5291,-1.52271 0,-0.83748 0.3712,-1.83078 0.825,-2.20734 0.6122,-0.50813 0.7366,-1.20695 0.4826,-2.71063 -0.2495,-1.47698 -0.1576,-2.02599 0.3392,-2.02599 0.5056,0 0.5276,-0.15399 0.085,-0.59634 -0.713,-0.71295 -0.039,-2.82623 1.4129,-4.43074 0.5267,-0.58209 1.117,-1.9513 1.3116,-3.04271 0.1947,-1.09141 0.5548,-1.98438 0.8003,-1.98438 0.2454,0 0.6117,-0.88188 0.8139,-1.95974 0.2022,-1.07788 0.7895,-2.80429 1.305,-3.83646 0.5156,-1.03219 0.8765,-2.6512 0.8022,-3.59777 -0.074,-0.9466 0.079,-1.85362 0.3414,-2.01563 0.2621,-0.16197 0.4766,-0.76779 0.4766,-1.34622 0,-0.6195 0.6585,-1.42219 1.6022,-1.95316 1.5701,-0.88328 2.4265,-2.57359 1.981,-3.91 -0.1233,-0.37002 0.2077,-1.13639 0.7356,-1.70302 0.6433,-0.69056 0.8594,-1.47952 0.6552,-2.39268 -0.6133,-2.74249 -0.052,-6.4826603 1.1195,-7.4545803 0.4257,-0.35328 0.6435,-0.85344 0.484,-1.11152 -0.1595,-0.25805 -0.038,-0.46921 0.2704,-0.46921 0.3082,0 0.5604,-0.46217 0.5604,-1.02709 0,-0.56491 0.2198,-1.16295 0.4884,-1.329 0.2687,-0.16602 0.6519,-1.07304 0.8515,-2.01559 0.1997,-0.94256 0.9665,-2.20667996 1.7041,-2.80916996 0.7375,-0.60248 1.2467,-1.37813004 1.1316,-1.72362004 -0.1312,-0.39357 -0.7688,-0.10949 -1.7072,0.76059 -1.068,0.99034004 -1.6609,1.22561004 -2.0665,0.82003004 -0.4055,-0.40561 -0.3741,-0.80333004 0.1097,-1.38629004 0.4176,-0.5031 0.5525,-1.44732 0.3509,-2.45536 -0.4138,-2.06901 0.097,-4.18033 1.0113,-4.18033 0.7494,0 1.0405,-0.69964 1.5964,-3.8364597 0.1935,-1.0914 0.6494,-1.98437 1.0132,-1.98437 0.4252,0 0.5784,0.51973 0.4289,1.4552 -0.1819,1.13744 -0.1099,1.28188 0.3298,0.66146 0.3094,-0.43656 0.5662,-1.35868 0.5706,-2.04916 0.01,-0.96144 0.1672,-1.12342 0.6873,-0.69173 0.3736,0.31003 0.9857,0.37426 1.3604,0.14273 0.5426,-0.33538 0.5593,-1.09267 0.082,-3.72513 -0.3295,-1.81729 -0.8236,-3.89463 -1.098,-4.6163 -0.4233,-1.11342 -0.2052,-1.67057 1.4406,-3.679 1.5928,-1.94376 1.9479,-2.81154 1.9866,-4.85434 0.026,-1.36811 0.2556,-2.63899 0.5103,-2.82417 0.2546,-0.18518 0.4212,-0.89956 0.3702,-1.5875 -0.051,-0.68795 -0.1403,-2.32237 -0.1984,-3.63206 -0.058,-1.30969 -0.4298,-2.72232 -0.8258,-3.13919 -0.6088,-0.64073 -0.5918,-0.85178 0.1098,-1.36486 0.4565,-0.3338 0.9293,-1.50804 1.0507,-2.60942 0.2929,-2.65765 1.9568,-3.75223 3.4646,-2.27924 0.5482,0.53545 0.6465,0.21539 0.516,-1.6801 -0.091,-1.31834 0.083,-2.42307 0.3983,-2.52807 0.3077,-0.10258 0.557,0.23675 0.5539,0.75406 -0.018,3.03816 0.2215,3.85099 1.1356,3.85099 0.5238,0 1.2054,-0.25301 1.5147,-0.56224 0.8061,-0.80609 1.1522,1.55083 0.9707,6.60936 -0.1093,3.04478 0.052,4.39726 0.587,4.93259 1.0113,1.01134 0.963,2.03695 -0.056,1.19112 -0.4366,-0.36231 -0.8121,-0.451 -0.8345,-0.19708 -0.022,0.25391 -0.1553,1.49218 -0.2953,2.75169 -0.14,1.25952 0,2.59714 0.3119,2.9725 0.4128,0.4974 0.3494,0.86258 -0.2339,1.34664 -0.5311,0.44078 -0.8003,1.61292 -0.8003,3.4849 0,1.55139 -0.2793,3.4337 -0.6206,4.18289 -0.4601,1.00978 -0.4665,1.51632 -0.025,1.95805 0.3636,0.36356 0.4196,0.92531 0.1437,1.44085 -0.2487,0.46474 -0.6239,2.0356 -0.8337,3.49081 -0.2099,1.45521 -0.7465,3.06254 -1.1926,3.57187 -0.5122,0.58486 -0.5858,0.92604 -0.1998,0.92604 0.9755,0 0.7081,1.4905797 -0.4807,2.6793297 -0.6266,0.62659 -1.0237,1.61179 -0.9319,2.31209 0.1651,1.25968 0,1.73371 -2.3571,6.65025 -0.846,1.7667 -1.4771,4.12758 -1.6061,6.00765 -0.1168,1.70347 -0.4611,3.2512803 -0.765,3.4395903 -0.304,0.18827 -0.7239,1.48523 -0.9331,2.8821 -0.2093,1.39687 -0.7259,2.88515 -1.148,3.30729 -0.4222,0.42215 -0.5163,0.76753 -0.2091,0.76753 0.3509,0 0.2769,0.639 -0.1991,1.71979 -0.4166,0.94589 -0.9036,2.85088 -1.0822,4.23333 -0.1786,1.38245 -0.5623,2.51354 -0.8527,2.51354 -0.2904,0 -0.3808,0.23813 -0.2009,0.52917 0.1798,0.29104 0.075,0.52917 -0.2334,0.52917 -0.3082,0 -0.5604,0.35718 -0.5604,0.79375 0,0.43656 -0.4488,1.24253 -0.9973,1.79104 -0.7218,0.72186 -0.9972,1.75914 -0.9972,3.75619 0,2.04263 -0.3136,3.18293 -1.2076,4.39224 -0.6642,0.89834 -1.2076,2.28097 -1.2076,3.07252 0,1.03968 -0.213,1.35748 -0.7671,1.14483 -0.6125,-0.23503 -0.6561,-0.087 -0.2166,0.73432 0.4013,0.74975 0.3171,1.88368 -0.3101,4.18129 -0.4733,1.73392 -1.0329,3.2748 -1.2436,3.42419 -0.2106,0.14938 -0.6577,1.363 -0.9936,2.69695 -0.3359,1.33392 -1.1487,3.00548 -1.8062,3.71456 -0.7946,0.85704 -1.0773,1.62603 -0.8431,2.29378 0.4835,1.37838 0.024,3.4585 -0.7638,3.4585 -0.9517,0 -1.9258,2.38371 -1.2502,3.05935 0.7415,0.7415 0,4.87553 -0.9425,5.23621 -0.4075,0.1564 -0.741,0.71766 -0.741,1.24728 0,0.52959 -0.4096,1.04177 -0.9101,1.13818 -0.614,0.11824 -0.9382,0.73351 -0.9964,1.89087 -0.047,0.94361 0.1239,1.71561 0.3809,1.71561 0.7789,0 0.5248,3.18617 -0.2787,3.49449 -0.4103,0.15745 -0.9137,0.92387 -1.1187,1.7032 -0.9029,3.43284 -1.2827,10.28676 -0.657,11.85902 0.3804,0.95589 1.9925,0.74959 1.9925,-0.25498 0,-0.30115 0.7144,-1.23026 1.5875,-2.06465 0.8731,-0.83441 1.5875,-1.67116 1.5875,-1.85943 0,-0.18828 0.5953,-1.12282 1.3229,-2.07675 0.7276,-0.95395 1.3229,-1.97241 1.3229,-2.26324 0,-0.29086 0.4169,-0.66114 0.9265,-0.82286 0.8649,-0.2745 1.7324,-1.77948 2.4645,-4.27521 0.3594,-1.22505 3.3021,-4.49792 4.0442,-4.49792 0.2763,0 0.5023,-0.33713 0.5023,-0.74922 0,-0.41206 1.0716,-1.89984 2.3813,-3.30615 1.3097,-1.40632 2.3812,-2.71902 2.3812,-2.91714 0,-0.19812 0.4168,-0.77359 0.9261,-1.27881 0.5093,-0.50525 1.4455,-1.61793 2.0804,-2.47267 0.9666,-1.3013 6.8789,-7.85061 8.7105,-9.64893 6.2067,-6.09385 8.0311,-8.00541 7.9546,-8.33437 -0.051,-0.21828 0.2396,-0.39688 0.6454,-0.39688 0.4058,0 1.5025,-0.71437 2.4372,-1.5875 0.9347,-0.87312 1.8528,-1.58816 2.0404,-1.589 0.1875,0 0.8171,-0.71454 1.3992,-1.586 0.5821,-0.87143 1.354,-1.58511 1.7153,-1.58596 0.3613,0 0.9544,-0.47779 1.3179,-1.05987 0.3635,-0.58208 0.9038,-1.05833 1.2005,-1.05833 0.2968,0 1.1816,-0.59532 1.9663,-1.32292 0.7847,-0.7276 1.6284,-1.32292 1.8748,-1.32292 0.2465,0 1.6418,-1.27971 3.1007,-2.84384 1.459,-1.56411 3.1727,-3.0089 3.8084,-3.21064 0.6356,-0.20175 1.1557,-0.55121 1.1557,-0.77658 0,-0.33586 1.2287,-0.82942 4.7625,-1.91297 1.2239,-0.37528 3.7806,-1.79673 5.0579,-2.81207 4.0515,-3.22053 8.1292,-5.64641 11.7364,-6.98229 0.9661,-0.35777 1.5628,-0.8776 1.3684,-1.19208 -0.2138,-0.34597 -0.013,-0.43027 0.53,-0.22207 0.4844,0.18587 2.0191,-0.23918 3.4394,-0.95258 3.2212,-1.6179 6.181,-2.03536 7.2007,-1.0156 0.4147,0.41473 1.4452,0.75406 2.29,0.75406 1.0758,0 1.7376,0.37706 2.2096,1.25897 0.4655,0.86979 0.9924,1.17562 1.7046,0.98938 0.9667,-0.25281 1.0146,-0.0379 0.7707,3.45914 -0.143,2.05078 -0.4835,4.16541 -0.7567,4.69915 -1.2551,2.45184 -2.2135,5.06773 -2.2135,6.04176 0,0.58666 -0.4025,1.82875 -0.8944,2.76019 -0.4918,0.93141 -0.9283,2.97143 -0.9697,4.53334 -0.056,2.1241 -0.3139,2.97321 -1.0213,3.3691 -0.7691,0.4304 -0.8103,0.61661 -0.2208,0.99663 0.4703,0.30319 0.535,0.60675 0.1843,0.86421 -0.2973,0.21828 -0.5853,0.99219 -0.64,1.71979 -0.2225,2.9594 -1.6933,9.63724 -2.2778,10.34148 -0.9707,1.16967 -0.9968,24.05848 -0.031,27.49394 0.4089,1.45521 0.9056,2.88396 1.1037,3.175 0.1982,0.29104 0.7667,1.83885 1.2634,3.43958 1.1227,3.61845 3.7016,8.24662 4.4966,8.0698 0.3271,-0.0728 0.5948,0.34861 0.5948,0.93641 0,0.8586 0.267,1.02023 1.3586,0.8223 1.254,-0.22739 1.3332,-0.13012 1.0274,1.262189 -0.188,0.85604 -0.089,1.6583 0.2288,1.85476 0.3081,0.19039 0.5602,0.60285 0.5602,0.91657 0,0.37944 -1.19,0.47487 -3.5548,0.28503 -2.9761,-0.23889 -3.7471,-0.50906 -4.7371,-1.65994 -0.6503,-0.75602 -1.5133,-1.37462 -1.9177,-1.37462 -0.4045,0 -1.0172,-0.940429 -1.3615,-2.089829 -0.5645,-1.884 -0.7763,-2.07087 -2.1505,-1.89696 -1.7147,0.21701 -2.3132,-0.90289 -1.8146,-3.39582 0.2534,-1.2672 0.083,-1.45349 -1.7488,-1.90654 -1.6869,-0.41732 -2.0017,-0.70302 -1.8641,-1.6919 0.091,-0.65437 -0.087,-1.18978 -0.3968,-1.18978 -0.3094,0 -0.5625,-0.33171 -0.5625,-0.73713 0,-0.40542 -0.3912,-0.88728 -0.8695,-1.07079 -0.4782,-0.18349 -0.7247,-0.47842 -0.5477,-0.65535 0.1769,-0.17693 0.1218,-0.70713 -0.1224,-1.17816 -0.2442,-0.47107 -0.2667,-1.33274 -0.05,-1.91482 0.2519,-0.67617 0.019,-1.8021 -0.6449,-3.11819 -0.5715,-1.13292 -1.1424,-2.91886 -1.2686,-3.96875 -0.1262,-1.04987 -0.3583,-2.32561 -0.5156,-2.83493 -0.1573,-0.50933 -0.089,-0.92605 0.1515,-0.92605 0.7316,0 1.9119,-2.26165 2.3122,-4.43063 0.3182,-1.72368 0.2253,-2.08939 -0.5843,-2.30108 -0.5609,-0.14669 -0.8438,-0.56118 -0.678,-0.99333 0.1565,-0.40788 0.052,-0.74162 -0.2335,-0.74162 -0.5176,0 -1.4704,-4.0258 -1.1899,-5.02709 0.082,-0.29104 0.2564,-2.67229 0.3886,-5.29166 0.1322,-2.61938 0.5558,-5.47688 0.9413,-6.35 0.3856,-0.87313 0.8508,-2.54 1.0338,-3.70417 0.2939,-1.86923 0.9015,-3.51774 2.484,-6.73968 0.2482,-0.50538 0.4513,-1.27928 0.4513,-1.71979 0,-0.4405 0.2172,-0.80095 0.4826,-0.80095 0.2655,0 0.6498,-1.01203 0.8541,-2.24895 0.2043,-1.23693 0.7186,-3.28356 1.1429,-4.54809 0.4243,-1.26452 0.6429,-2.42765 0.4858,-2.58476 -0.1572,-0.15711 -1.0672,0.0385 -2.0224,0.43465 -0.9553,0.39616 -1.9749,0.76177 -2.266,0.81243 -1.3674,0.2381 -3.3163,1.26754 -4.7449,2.50638 -0.8635,0.74874 -2.2497,1.51063 -3.0806,1.69312 -0.8308,0.18248 -1.3765,0.4658 -1.2127,0.6296 0.4899,0.4899 -0.8097,1.71812 -1.8179,1.71812 -0.5153,0 -1.0739,0.35719 -1.2415,0.79375 -0.1675,0.43657 -0.8879,0.79375 -1.6008,0.79375 -1.8424,0 -2.9703,0.52383 -2.9703,1.37954 0,0.40542 -0.305,0.73713 -0.6777,0.73713 -0.3728,0 -0.9454,0.70916 -1.2726,1.57591 -0.3272,0.86675 -1.2634,1.87878 -2.0805,2.24896 -0.817,0.37018 -2.0603,1.20438 -2.7627,1.85378 -0.7024,0.64939 -1.4642,1.06505 -1.6929,0.92374 -0.2287,-0.14134 -1.3194,0.69657 -2.4237,1.86198 -1.1044,1.16543 -2.2731,2.11896 -2.5973,2.11896 -0.8116,0 -2.8939,2.47082 -2.457,2.91545 0.1947,0.19809 0,0.27964 -0.4398,0.18118 -0.4365,-0.0985 -0.813,-0.0616 -0.8366,0.082 -0.1982,1.20653 -1.6371,2.82178 -2.9085,3.26499 -0.8506,0.29652 -1.5465,0.84754 -1.5465,1.22449 0,0.37695 -0.3572,0.82243 -0.7938,0.98996 -0.4365,0.16754 -0.7937,0.58201 -0.7937,0.9211 0,0.88019 -2.7399,3.11946 -3.8179,3.12023 -0.4991,0 -1.1902,0.53642 -1.5359,1.19126 -0.3456,0.65484 -1.3721,1.905 -2.2811,2.77812 -0.9089,0.87313 -2.2277,2.42094 -2.9305,3.43959 -1.7744,2.57164 -4.1918,4.86172 -4.7608,4.51006 -0.2616,-0.16169 -0.6353,-0.0358 -0.8304,0.2799 -0.195,0.31562 -0.6526,0.45953 -1.0168,0.31978 -0.4653,-0.17854 -0.6073,0.24352 -0.4777,1.41972 0.1519,1.37856 -0.1873,2.03465 -1.9232,3.71938 -1.1592,1.12504 -1.9851,2.24394 -1.8352,2.4864 0.1498,0.24246 -0.2105,0.69929 -0.8007,1.01518 -0.5902,0.31589 -1.0732,0.86495 -1.0732,1.22013 0,0.3552 -0.8334,1.34072 -1.852,2.19006 -1.0187,0.84934 -1.8521,1.84652 -1.8521,2.21599 0,0.36944 -0.493,1.017 -1.0955,1.43901 -0.798,0.55899 -0.9058,0.8431 -0.3968,1.04656 0.5187,0.20741 0.5283,0.29004 0.037,0.32105 -0.3638,0.023 -0.6615,0.5125 -0.6615,1.08781 0,0.6146 -1.8827,2.89517 -4.5648,5.52939 -3.1035,3.04808 -4.464,4.746099 -4.25,5.303999 0.1745,0.45453 0.027,0.84783 -0.3299,0.88162 -0.3547,0.0335 -0.883,0.0931 -1.174,0.13229 -0.2911,0.0392 -1.5362,0.78563 -2.7669,1.65875 -1.7319,1.22873 -2.2402,1.93035 -2.2489,3.10444 -0.01,1.25388 -0.1948,1.46896 -1.0691,1.24031 -0.5818,-0.15216 -1.1912,-0.0608 -1.3542,0.20286 -0.4408,0.71331 -0.9671,0.58401 -1.5804,-0.38831 z m 28.8632,-147.828039 c 0,-0.29104 -0.2381,-0.52916 -0.5291,-0.52916 -0.2911,0 -0.5292,0.23812 -0.5292,0.52916 0,0.29105 0.2381,0.52917 0.5292,0.52917 0.291,0 0.5291,-0.23812 0.5291,-0.52917 z" />
  </g>
</svg>
